<?xml version="1.0" encoding="UTF-8" standalone="no"?>
<!-- Created with Inkscape (http://www.inkscape.org/) -->

<svg
   xmlns:dc="http://purl.org/dc/elements/1.1/"
   xmlns:cc="http://creativecommons.org/ns#"
   xmlns:rdf="http://www.w3.org/1999/02/22-rdf-syntax-ns#"
   xmlns:svg="http://www.w3.org/2000/svg"
   xmlns="http://www.w3.org/2000/svg"
   xmlns:sodipodi="http://sodipodi.sourceforge.net/DTD/sodipodi-0.dtd"
   xmlns:inkscape="http://www.inkscape.org/namespaces/inkscape"
   width="210mm"
   height="297mm"
   viewBox="0 0 210 297"
   version="1.1"
   id="svg1544"
   inkscape:version="0.92.2 2405546, 2018-03-11"
   sodipodi:docname="arara3.svg">
  <defs
     id="defs1538" />
  <sodipodi:namedview
     id="base"
     pagecolor="#ffffff"
     bordercolor="#666666"
     borderopacity="1.0"
     inkscape:pageopacity="0.0"
     inkscape:pageshadow="2"
     inkscape:zoom="0.24748737"
     inkscape:cx="0.30653011"
     inkscape:cy="914.95118"
     inkscape:document-units="mm"
     inkscape:current-layer="layer1"
     showgrid="false"
     inkscape:window-width="1366"
     inkscape:window-height="746"
     inkscape:window-x="0"
     inkscape:window-y="22"
     inkscape:window-maximized="1" />
  <metadata
     id="metadata1541">
    <rdf:RDF>
      <cc:Work
         rdf:about="">
        <dc:format>image/svg+xml</dc:format>
        <dc:type
           rdf:resource="http://purl.org/dc/dcmitype/StillImage" />
        <dc:title></dc:title>
      </cc:Work>
    </rdf:RDF>
  </metadata>
  <g
     inkscape:label="Camada 1"
     inkscape:groupmode="layer"
     id="layer1">
    <path
       inkscape:export-ydpi="293.84"
       inkscape:export-xdpi="293.84"
       inkscape:export-filename="/home/siqueira/Pictures/flusp.png"
       sodipodi:nodetypes="ccc"
       inkscape:connector-curvature="0"
       id="path3223"
       d="m 119.72254,168.79866 c 2.49607,-24.5785 83.38693,-10.77532 83.61876,9.29569 -2.496,24.57848 -83.38687,10.77526 -83.61876,-9.29569 z"
       style="opacity:1;fill:#0095ad;fill-opacity:1;stroke:#000000;stroke-width:4.44488907;stroke-linecap:round;stroke-linejoin:round;stroke-miterlimit:4;stroke-dasharray:none;stroke-dashoffset:0;stroke-opacity:1"
       inkscape:transform-center-x="-39.577401"
       inkscape:transform-center-y="4.84113" />
    <path
       inkscape:export-ydpi="293.84"
       inkscape:export-xdpi="293.84"
       inkscape:export-filename="/home/siqueira/Pictures/flusp.png"
       sodipodi:nodetypes="cccc"
       inkscape:connector-curvature="0"
       id="path3225"
       d="m 167.92944,125.968 c -25.35408,-18.36912 -27.42235,-27.482019 -44.33846,-3.33044 13.28152,26.90396 34.20729,23.18295 45.12873,7.81407 1.02308,-1.4607 0.67064,-3.4604 -0.79029,-4.48363 z"
       style="opacity:1;fill:#382810;fill-opacity:1;stroke:#000000;stroke-width:2.53993654;stroke-linecap:round;stroke-linejoin:round;stroke-miterlimit:4;stroke-dasharray:none;stroke-dashoffset:0;stroke-opacity:1"
       inkscape:transform-center-x="-54.214334"
       inkscape:transform-center-y="-8.6883879" />
    <path
       inkscape:export-ydpi="293.84"
       inkscape:export-xdpi="293.84"
       inkscape:export-filename="/home/siqueira/Pictures/flusp.png"
       sodipodi:nodetypes="cczac"
       inkscape:connector-curvature="0"
       id="path3227"
       d="m 69.700594,150.24966 h 34.290256 c 37.59576,-12.77009 37.88296,56.1874 16.68066,80.65435 -21.20237,24.46701 -59.748379,19.92098 -74.662261,0 -16.793673,-22.43195 -8.548341,-91.63132 23.691345,-80.65435 z"
       style="opacity:1;fill:#0095ad;fill-opacity:1;stroke:#000000;stroke-width:4.44488907;stroke-linecap:round;stroke-linejoin:round;stroke-miterlimit:4;stroke-dasharray:none;stroke-dashoffset:0;stroke-opacity:1" />
    <path
       inkscape:export-ydpi="293.84"
       inkscape:export-xdpi="293.84"
       inkscape:export-filename="/home/siqueira/Pictures/flusp.png"
       sodipodi:nodetypes="ccc"
       inkscape:connector-curvature="0"
       id="path3229"
       d="M 45.502504,156.4793 C 66.1405,158.18728 37.903548,242.22794 21.085919,242.73573 0.44788697,241.02775 28.684882,156.98709 45.502504,156.4793 Z"
       style="opacity:1;fill:#0095ad;fill-opacity:1;stroke:#000000;stroke-width:4.44488907;stroke-linecap:round;stroke-linejoin:round;stroke-miterlimit:4;stroke-dasharray:none;stroke-dashoffset:0;stroke-opacity:1" />
    <path
       inkscape:export-ydpi="293.84"
       inkscape:export-xdpi="293.84"
       inkscape:export-filename="/home/siqueira/Pictures/flusp.png"
       sodipodi:nodetypes="sscccccsscs"
       inkscape:connector-curvature="0"
       id="path3231"
       d="m 29.221042,108.64015 c 1.345328,10.42012 6.902402,27.66436 12.428552,37.16824 9.734519,16.74133 22.354333,21.6864 33.001002,10.38294 6.708564,6.64454 10.723462,0.9566 12.762413,-3.11292 4.762331,5.94167 10.45712,2.82516 12.762401,-3.11291 3.06319,4.01948 8.99415,5.26973 12.76247,-3.11294 3.89235,5.26635 11.40532,3.15776 12.76242,-3.11291 19.08941,-2.31169 13.57485,-7.58549 13.03515,-20.4403 -0.0681,-1.62371 -2.8604,-11.94973 -3.06761,-13.6047 -1.10414,-8.81879 8.68406,-15.304259 7.14117,-22.250733 C 122.77582,10.972633 22.066087,53.221552 29.221042,108.64015 Z"
       style="opacity:1;fill:#0095ad;fill-opacity:1;stroke:#000000;stroke-width:4.44488907;stroke-linecap:round;stroke-linejoin:round;stroke-miterlimit:4;stroke-dasharray:none;stroke-dashoffset:0;stroke-opacity:1"
       inkscape:transform-center-x="10.97631"
       inkscape:transform-center-y="-28.541681" />
    <path
       inkscape:connector-curvature="0"
       id="path3233"
       d="m 131.50944,113.08424 a 15.227911,15.23016 76.292474 0 1 12.08093,11.35558 15.227911,15.23016 76.292474 0 1 -11.18807,18.40356 15.227911,15.23016 76.292474 0 1 -14.3035,-3.97877 15.227911,15.23016 76.292474 0 0 6.32418,-0.17057 15.227911,15.23016 76.292474 0 0 11.18785,-18.40316 15.227911,15.23016 76.292474 0 0 -4.10139,-7.20663 z"
       style="opacity:1;fill:#0095ad;fill-opacity:1;stroke:#000000;stroke-width:4.44488907;stroke-linecap:round;stroke-linejoin:round;stroke-miterlimit:4;stroke-dasharray:none;stroke-dashoffset:0;stroke-opacity:1"
       inkscape:transform-center-x="-34.168997"
       inkscape:transform-center-y="-4.4507954" />
    <ellipse
       cy="153.10884"
       cx="-92.606621"
       id="circle3235"
       style="opacity:1;fill:#0095ad;fill-opacity:1;stroke:none;stroke-width:4.44488907;stroke-linecap:round;stroke-linejoin:round;stroke-miterlimit:4;stroke-dasharray:none;stroke-dashoffset:0;stroke-opacity:1"
       rx="16.55978"
       ry="16.557335"
       transform="matrix(-0.971518,0.23696576,0.23696576,0.971518,0,0)"
       inkscape:transform-center-x="-29.358098"
       inkscape:transform-center-y="-5.8254753" />
    <path
       style="opacity:1;fill:#00c5d4;fill-opacity:1;stroke:#00ffff;stroke-width:4.44488907;stroke-linecap:round;stroke-linejoin:round;stroke-miterlimit:4;stroke-dasharray:none;stroke-dashoffset:0;stroke-opacity:1"
       d="m 126.66811,130.50132 a 11.294945,11.286787 82.74879 0 1 3.04148,11.91511 11.294945,11.286787 82.74879 0 1 -14.31395,7.067 11.294945,11.286787 82.74879 0 1 -7.36423,-8.18233 11.294945,11.286787 82.74879 0 0 4.02319,2.40988 11.294945,11.286787 82.74879 0 0 14.31366,-7.0668 11.294945,11.286787 82.74879 0 0 0.29985,-6.14286 z"
       id="path3239"
       inkscape:connector-curvature="0"
       inkscape:transform-center-x="-22.274442"
       inkscape:transform-center-y="7.6629795" />
    <ellipse
       ry="12.27931"
       rx="12.273847"
       transform="matrix(-0.94691378,-0.32148762,-0.32094857,0.94709662,0,0)"
       style="opacity:1;fill:#0095ad;fill-opacity:1;stroke:none;stroke-width:4.44488955;stroke-linecap:round;stroke-linejoin:round;stroke-miterlimit:4;stroke-dasharray:none;stroke-dashoffset:0;stroke-opacity:1"
       id="ellipse3241"
       cx="-155.65485"
       cy="91.81176"
       inkscape:transform-center-x="-21.032409"
       inkscape:transform-center-y="4.3668404" />
    <path
       inkscape:connector-curvature="0"
       id="path3245"
       d="m 24.685313,194.60438 a 4.1536566,10.084116 17.315938 0 0 -3.314432,10.46625 4.1536566,10.084116 17.315938 0 0 4.550746,4.66733 4.1536566,10.084116 17.315938 0 0 4.409044,-7.6915 4.1536566,10.084116 17.315938 0 1 -2.048268,2.44253 4.1536566,10.084116 17.315938 0 1 -4.550651,-4.66726 4.1536566,10.084116 17.315938 0 1 0.953561,-5.21735 z"
       style="opacity:1;fill:#0095ad;fill-opacity:1;stroke:#00ffff;stroke-width:4.44488811;stroke-linecap:round;stroke-linejoin:round;stroke-miterlimit:4;stroke-dasharray:none;stroke-dashoffset:0;stroke-opacity:1" />
    <ellipse
       cy="230.93738"
       cx="49.080097"
       id="ellipse3247"
       style="opacity:1;fill:#0095ad;fill-opacity:1;stroke:none;stroke-width:5.17180872;stroke-linecap:round;stroke-linejoin:round;stroke-miterlimit:4;stroke-dasharray:none;stroke-dashoffset:0;stroke-opacity:1"
       transform="matrix(0.7689674,-0.63928799,-0.04614682,0.99893467,0,0)"
       rx="7.0085711"
       ry="9.5653791" />
    <path
       style="opacity:1;fill:#0095ad;fill-opacity:1;stroke:#00ffff;stroke-width:4.44488811;stroke-linecap:round;stroke-linejoin:round;stroke-miterlimit:4;stroke-dasharray:none;stroke-dashoffset:0;stroke-opacity:1"
       d="m 29.642628,182.98202 a 4.1536566,10.084116 17.315938 0 0 -3.314432,10.46625 4.1536566,10.084116 17.315938 0 0 4.550747,4.66732 4.1536566,10.084116 17.315938 0 0 4.409043,-7.6915 4.1536566,10.084116 17.315938 0 1 -2.048268,2.44254 4.1536566,10.084116 17.315938 0 1 -4.550653,-4.66727 4.1536566,10.084116 17.315938 0 1 0.953563,-5.21734 z"
       id="path3251"
       inkscape:connector-curvature="0" />
    <ellipse
       ry="9.5653791"
       rx="7.0085711"
       transform="matrix(0.7689674,-0.63928799,-0.04614682,0.99893467,0,0)"
       style="opacity:1;fill:#0095ad;fill-opacity:1;stroke:none;stroke-width:5.17180872;stroke-linecap:round;stroke-linejoin:round;stroke-miterlimit:4;stroke-dasharray:none;stroke-dashoffset:0;stroke-opacity:1"
       id="ellipse3253"
       cx="55.058189"
       cy="223.12843" />
    <path
       style="opacity:1;fill:#0095ad;fill-opacity:1;stroke:#00ffff;stroke-width:4.44488859;stroke-linecap:round;stroke-linejoin:round;stroke-miterlimit:4;stroke-dasharray:none;stroke-dashoffset:0;stroke-opacity:1"
       d="m 20.184032,213.07829 a 4.1536891,10.084038 10.932393 0 0 -2.130252,10.76978 4.1536891,10.084038 10.932393 0 0 5.041456,4.1326 4.1536891,10.084038 10.932393 0 0 3.526575,-8.13388 4.1536891,10.084038 10.932393 0 1 -1.76401,2.65505 4.1536891,10.084038 10.932393 0 1 -5.041349,-4.13248 4.1536891,10.084038 10.932393 0 1 0.36758,-5.29107 z"
       id="path3257"
       inkscape:connector-curvature="0" />
    <ellipse
       ry="9.565383"
       rx="7.0084567"
       transform="matrix(0.69313697,-0.7208059,0.06520044,0.99787219,0,0)"
       style="opacity:1;fill:#0095ad;fill-opacity:1;stroke:none;stroke-width:5.17176723;stroke-linecap:round;stroke-linejoin:round;stroke-miterlimit:4;stroke-dasharray:none;stroke-dashoffset:0;stroke-opacity:1"
       id="ellipse3259"
       cx="11.997126"
       cy="226.62299" />
    <path
       inkscape:connector-curvature="0"
       id="path3263"
       d="m 22.804935,221.26743 a 4.1536566,10.084116 17.315938 0 0 -3.314434,10.46625 4.1536566,10.084116 17.315938 0 0 4.550749,4.66733 4.1536566,10.084116 17.315938 0 0 4.409043,-7.69151 4.1536566,10.084116 17.315938 0 1 -2.048268,2.44255 4.1536566,10.084116 17.315938 0 1 -4.550653,-4.66727 4.1536566,10.084116 17.315938 0 1 0.953563,-5.21735 z"
       style="opacity:1;fill:#0095ad;fill-opacity:1;stroke:#00ffff;stroke-width:4.44488811;stroke-linecap:round;stroke-linejoin:round;stroke-miterlimit:4;stroke-dasharray:none;stroke-dashoffset:0;stroke-opacity:1" />
    <ellipse
       cy="257.06744"
       cx="48.202885"
       id="ellipse3265"
       style="opacity:1;fill:#0095ad;fill-opacity:1;stroke:none;stroke-width:5.17180872;stroke-linecap:round;stroke-linejoin:round;stroke-miterlimit:4;stroke-dasharray:none;stroke-dashoffset:0;stroke-opacity:1"
       transform="matrix(0.7689674,-0.63928799,-0.04614682,0.99893467,0,0)"
       rx="7.0085711"
       ry="9.5653791" />
    <path
       style="opacity:1;fill:#0095ad;fill-opacity:1;stroke:#00ffff;stroke-width:4.44488811;stroke-linecap:round;stroke-linejoin:round;stroke-miterlimit:4;stroke-dasharray:none;stroke-dashoffset:0;stroke-opacity:1"
       d="m 26.565673,217.84905 a 4.1536566,10.084116 17.315938 0 0 -3.314433,10.46626 4.1536566,10.084116 17.315938 0 0 4.550748,4.66733 4.1536566,10.084116 17.315938 0 0 4.409043,-7.69151 4.1536566,10.084116 17.315938 0 1 -2.04827,2.44254 4.1536566,10.084116 17.315938 0 1 -4.550651,-4.66726 4.1536566,10.084116 17.315938 0 1 0.953563,-5.21736 z"
       id="path3269"
       inkscape:connector-curvature="0" />
    <ellipse
       ry="9.5653791"
       rx="7.0085711"
       transform="matrix(0.7689674,-0.63928799,-0.04614682,0.99893467,0,0)"
       style="opacity:1;fill:#0095ad;fill-opacity:1;stroke:none;stroke-width:5.17180872;stroke-linecap:round;stroke-linejoin:round;stroke-miterlimit:4;stroke-dasharray:none;stroke-dashoffset:0;stroke-opacity:1"
       id="ellipse3271"
       cx="53.075272"
       cy="256.76364" />
    <path
       style="opacity:1;fill:#0095ad;fill-opacity:1;stroke:#00ffff;stroke-width:4.44488811;stroke-linecap:round;stroke-linejoin:round;stroke-miterlimit:4;stroke-dasharray:none;stroke-dashoffset:0;stroke-opacity:1"
       d="m 25.198172,203.32113 a 4.1536566,10.084116 17.315938 0 0 -3.314433,10.46625 4.1536566,10.084116 17.315938 0 0 4.550747,4.66733 4.1536566,10.084116 17.315938 0 0 4.409042,-7.69151 4.1536566,10.084116 17.315938 0 1 -2.048267,2.44253 4.1536566,10.084116 17.315938 0 1 -4.550652,-4.66725 4.1536566,10.084116 17.315938 0 1 0.953563,-5.21735 z"
       id="path3275"
       inkscape:connector-curvature="0" />
    <ellipse
       ry="9.5653791"
       rx="7.0085711"
       transform="matrix(0.7689674,-0.63928799,-0.04614682,0.99893467,0,0)"
       style="opacity:1;fill:#0095ad;fill-opacity:1;stroke:none;stroke-width:5.17180872;stroke-linecap:round;stroke-linejoin:round;stroke-miterlimit:4;stroke-dasharray:none;stroke-dashoffset:0;stroke-opacity:1"
       id="ellipse3277"
       cx="50.31826"
       cy="240.4558" />
    <path
       inkscape:connector-curvature="0"
       id="path3281"
       d="m 32.548665,196.31357 a 4.1536566,10.084116 17.315938 0 0 -3.314433,10.46625 4.1536566,10.084116 17.315938 0 0 4.550747,4.66732 4.1536566,10.084116 17.315938 0 0 4.409042,-7.6915 4.1536566,10.084116 17.315938 0 1 -2.048267,2.44254 4.1536566,10.084116 17.315938 0 1 -4.550652,-4.66726 4.1536566,10.084116 17.315938 0 1 0.953563,-5.21735 z"
       style="opacity:1;fill:#0095ad;fill-opacity:1;stroke:#00ffff;stroke-width:4.44488811;stroke-linecap:round;stroke-linejoin:round;stroke-miterlimit:4;stroke-dasharray:none;stroke-dashoffset:0;stroke-opacity:1" />
    <ellipse
       cy="239.52242"
       cx="59.821148"
       id="ellipse3283"
       style="opacity:1;fill:#0095ad;fill-opacity:1;stroke:none;stroke-width:5.17180872;stroke-linecap:round;stroke-linejoin:round;stroke-miterlimit:4;stroke-dasharray:none;stroke-dashoffset:0;stroke-opacity:1"
       transform="matrix(0.7689674,-0.63928799,-0.04614682,0.99893467,0,0)"
       rx="7.0085711"
       ry="9.5653791" />
    <path
       inkscape:connector-curvature="0"
       id="path3287"
       d="m 33.403367,206.56857 a 4.1536566,10.084116 17.315938 0 0 -3.314433,10.46625 4.1536566,10.084116 17.315938 0 0 4.550747,4.66732 4.1536566,10.084116 17.315938 0 0 4.409042,-7.69151 4.1536566,10.084116 17.315938 0 1 -2.048268,2.44254 4.1536566,10.084116 17.315938 0 1 -4.550652,-4.66726 4.1536566,10.084116 17.315938 0 1 0.953564,-5.21734 z"
       style="opacity:1;fill:#0095ad;fill-opacity:1;stroke:#00ffff;stroke-width:4.44488811;stroke-linecap:round;stroke-linejoin:round;stroke-miterlimit:4;stroke-dasharray:none;stroke-dashoffset:0;stroke-opacity:1" />
    <ellipse
       cy="250.93806"
       cx="61.617725"
       id="ellipse3289"
       style="opacity:1;fill:#0095ad;fill-opacity:1;stroke:none;stroke-width:5.17180872;stroke-linecap:round;stroke-linejoin:round;stroke-miterlimit:4;stroke-dasharray:none;stroke-dashoffset:0;stroke-opacity:1"
       transform="matrix(0.7689674,-0.63928799,-0.04614682,0.99893467,0,0)"
       rx="7.0085711"
       ry="9.5653791" />
    <path
       style="opacity:1;fill:#0095ad;fill-opacity:1;stroke:#00ffff;stroke-width:4.44488811;stroke-linecap:round;stroke-linejoin:round;stroke-miterlimit:4;stroke-dasharray:none;stroke-dashoffset:0;stroke-opacity:1"
       d="m 37.847887,193.23707 a 4.1536566,10.084116 17.315938 0 0 -3.314434,10.46625 4.1536566,10.084116 17.315938 0 0 4.550748,4.66733 4.1536566,10.084116 17.315938 0 0 4.409044,-7.69149 4.1536566,10.084116 17.315938 0 1 -2.04827,2.44252 4.1536566,10.084116 17.315938 0 1 -4.550651,-4.66726 4.1536566,10.084116 17.315938 0 1 0.953563,-5.21735 z"
       id="path3293"
       inkscape:connector-curvature="0" />
    <ellipse
       ry="9.5653791"
       rx="7.0085711"
       transform="matrix(0.7689674,-0.63928799,-0.04614682,0.99893467,0,0)"
       style="opacity:1;fill:#0095ad;fill-opacity:1;stroke:none;stroke-width:5.17180872;stroke-linecap:round;stroke-linejoin:round;stroke-miterlimit:4;stroke-dasharray:none;stroke-dashoffset:0;stroke-opacity:1"
       id="ellipse3295"
       cx="66.795525"
       cy="240.90598" />
    <path
       style="opacity:1;fill:#0095ad;fill-opacity:1;stroke:#00ffff;stroke-width:4.44488811;stroke-linecap:round;stroke-linejoin:round;stroke-miterlimit:4;stroke-dasharray:none;stroke-dashoffset:0;stroke-opacity:1"
       d="m 34.258068,174.94896 a 4.1536566,10.084116 17.315938 0 0 -3.314433,10.46626 4.1536566,10.084116 17.315938 0 0 4.550747,4.66732 4.1536566,10.084116 17.315938 0 0 4.409042,-7.69151 4.1536566,10.084116 17.315938 0 1 -2.048267,2.44253 4.1536566,10.084116 17.315938 0 1 -4.550651,-4.66725 4.1536566,10.084116 17.315938 0 1 0.953562,-5.21735 z"
       id="path3299"
       inkscape:connector-curvature="0" />
    <ellipse
       ry="9.5653791"
       rx="7.0085711"
       transform="matrix(0.7689674,-0.63928799,-0.04614682,0.99893467,0,0)"
       style="opacity:1;fill:#0095ad;fill-opacity:1;stroke:none;stroke-width:5.17180872;stroke-linecap:round;stroke-linejoin:round;stroke-miterlimit:4;stroke-dasharray:none;stroke-dashoffset:0;stroke-opacity:1"
       id="ellipse3301"
       cx="60.798176"
       cy="218.76022" />
    <path
       inkscape:connector-curvature="0"
       id="path3305"
       d="m 38.873487,178.70915 a 4.1536566,10.084116 17.315938 0 0 -3.314433,10.46625 4.1536566,10.084116 17.315938 0 0 4.550747,4.66732 4.1536566,10.084116 17.315938 0 0 4.409044,-7.6915 4.1536566,10.084116 17.315938 0 1 -2.048268,2.44254 4.1536566,10.084116 17.315938 0 1 -4.550653,-4.66726 4.1536566,10.084116 17.315938 0 1 0.953563,-5.21735 z"
       style="opacity:1;fill:#0095ad;fill-opacity:1;stroke:#00ffff;stroke-width:4.44488811;stroke-linecap:round;stroke-linejoin:round;stroke-miterlimit:4;stroke-dasharray:none;stroke-dashoffset:0;stroke-opacity:1" />
    <ellipse
       cy="226.66931"
       cx="67.274895"
       id="ellipse3307"
       style="opacity:1;fill:#0095ad;fill-opacity:1;stroke:none;stroke-width:5.17180872;stroke-linecap:round;stroke-linejoin:round;stroke-miterlimit:4;stroke-dasharray:none;stroke-dashoffset:0;stroke-opacity:1"
       transform="matrix(0.7689674,-0.63928799,-0.04614682,0.99893467,0,0)"
       rx="7.0085711"
       ry="9.5653791" />
    <path
       inkscape:connector-curvature="0"
       id="path3311"
       d="m 40.241065,165.89033 a 4.1536566,10.084116 17.315938 0 0 -3.314434,10.46626 4.1536566,10.084116 17.315938 0 0 4.550747,4.66732 4.1536566,10.084116 17.315938 0 0 4.409044,-7.69149 4.1536566,10.084116 17.315938 0 1 -2.048267,2.44253 4.1536566,10.084116 17.315938 0 1 -4.550652,-4.66726 4.1536566,10.084116 17.315938 0 1 0.953562,-5.21736 z"
       style="opacity:1;fill:#0095ad;fill-opacity:1;stroke:#00ffff;stroke-width:4.44488811;stroke-linecap:round;stroke-linejoin:round;stroke-miterlimit:4;stroke-dasharray:none;stroke-dashoffset:0;stroke-opacity:1" />
    <ellipse
       cy="214.50793"
       cx="68.323532"
       id="ellipse3313"
       style="opacity:1;fill:#0095ad;fill-opacity:1;stroke:none;stroke-width:5.17180872;stroke-linecap:round;stroke-linejoin:round;stroke-miterlimit:4;stroke-dasharray:none;stroke-dashoffset:0;stroke-opacity:1"
       transform="matrix(0.7689674,-0.63928799,-0.04614682,0.99893467,0,0)"
       rx="7.0085711"
       ry="9.5653791" />
    <ellipse
       inkscape:export-ydpi="293.84"
       inkscape:export-xdpi="293.84"
       inkscape:export-filename="/home/siqueira/Pictures/flusp.png"
       ry="32.200562"
       rx="31.521545"
       cy="99.732979"
       cx="-69.6269"
       id="ellipse3317"
       style="opacity:1;fill:#ffb500;fill-opacity:1;stroke:none;stroke-width:2.5399363;stroke-linecap:round;stroke-linejoin:round;stroke-miterlimit:4;stroke-dasharray:none;stroke-dashoffset:0;stroke-opacity:1"
       transform="matrix(-0.971518,0.23696576,0.23696576,0.971518,0,0)"
       inkscape:transform-center-x="5.6153667"
       inkscape:transform-center-y="-52.235679" />
    <ellipse
       ry="24.160355"
       rx="24.163921"
       inkscape:export-ydpi="293.84"
       inkscape:export-xdpi="293.84"
       inkscape:export-filename="/home/siqueira/Pictures/flusp.png"
       style="opacity:1;fill:#ffffff;fill-opacity:1;stroke:none;stroke-width:2.5399363;stroke-linecap:round;stroke-linejoin:round;stroke-miterlimit:4;stroke-dasharray:none;stroke-dashoffset:0;stroke-opacity:1"
       id="ellipse3319"
       cx="-72.874779"
       cy="102.29671"
       transform="matrix(-0.971518,0.23696576,0.23696576,0.971518,0,0)"
       inkscape:transform-center-x="1.8524815"
       inkscape:transform-center-y="-50.514607" />
    <path
       inkscape:export-ydpi="293.84"
       inkscape:export-xdpi="293.84"
       inkscape:export-filename="/home/siqueira/Pictures/flusp.png"
       sodipodi:nodetypes="ccsscc"
       inkscape:connector-curvature="0"
       id="path3321"
       d="m 133.24257,75.301364 c -5.94429,26.942636 5.48023,41.580106 29.33524,28.862156 5.76578,-3.23361 9.04157,-12.826279 13.69096,-11.581289 5.71148,1.52947 12.15348,15.529599 12.15348,15.529599 0.85908,1.25799 2.38108,-1.843 2.02012,-3.32287 -5.63326,-40.30108 -41.43194,-32.207561 -57.1998,-29.487596 z"
       style="opacity:1;fill:#382810;fill-opacity:1;stroke:#000000;stroke-width:2.53993654;stroke-linecap:round;stroke-linejoin:round;stroke-miterlimit:4;stroke-dasharray:none;stroke-dashoffset:0;stroke-opacity:1"
       inkscape:transform-center-x="-64.201477"
       inkscape:transform-center-y="-41.837214" />
    <path
       inkscape:export-ydpi="293.84"
       inkscape:export-xdpi="293.84"
       inkscape:export-filename="/home/siqueira/Pictures/flusp.png"
       style="opacity:0.7;fill:#cccccc;fill-opacity:1;stroke:none;stroke-width:0.1680062px;stroke-linecap:butt;stroke-linejoin:miter;stroke-opacity:1"
       d="M 76.149818,79.125831 C 70.527824,90.898431 83.508801,103.68899 97.142496,100.8399 91.326088,92.851801 84.690462,83.661342 76.149818,79.125831 Z"
       id="path3323"
       inkscape:connector-curvature="0"
       sodipodi:nodetypes="ccc"
       inkscape:transform-center-x="10.918382"
       inkscape:transform-center-y="-42.444574" />
    <path
       inkscape:export-ydpi="293.84"
       inkscape:export-xdpi="293.84"
       inkscape:export-filename="/home/siqueira/Pictures/flusp.png"
       sodipodi:nodetypes="ccc"
       inkscape:connector-curvature="0"
       id="path3325"
       d="M 76.502127,79.039897 C 73.640159,91.887481 84.474908,103.84218 97.49478,100.75397 91.678399,92.765871 85.042763,83.57541 76.502127,79.039897 Z"
       style="fill:#9c9c9c;stroke:none;stroke-width:0.1680062px;stroke-linecap:butt;stroke-linejoin:miter;stroke-opacity:1"
       inkscape:transform-center-x="10.125299"
       inkscape:transform-center-y="-42.485928" />
    <ellipse
       ry="18.007349"
       rx="18.01001"
       inkscape:export-ydpi="293.84"
       inkscape:export-xdpi="293.84"
       inkscape:export-filename="/home/siqueira/Pictures/flusp.png"
       cy="102.29671"
       cx="-72.874779"
       id="ellipse3327"
       style="opacity:1;fill:#e37404;fill-opacity:1;stroke:#000000;stroke-width:1.90495241;stroke-linecap:round;stroke-linejoin:round;stroke-miterlimit:4;stroke-dasharray:none;stroke-dashoffset:0;stroke-opacity:1"
       transform="matrix(-0.971518,0.23696576,0.23696576,0.971518,0,0)"
       inkscape:transform-center-x="1.8524815"
       inkscape:transform-center-y="-50.514607" />
    <ellipse
       inkscape:export-ydpi="293.84"
       inkscape:export-xdpi="293.84"
       inkscape:export-filename="/home/siqueira/Pictures/flusp.png"
       ry="13.43602"
       rx="13.07849"
       cy="102.29671"
       cx="-72.874779"
       id="ellipse3329"
       style="opacity:1;fill:#000000;fill-opacity:1;stroke:none;stroke-width:2.5399363;stroke-linecap:round;stroke-linejoin:round;stroke-miterlimit:4;stroke-dasharray:none;stroke-dashoffset:0;stroke-opacity:1"
       transform="matrix(-0.971518,0.23696576,0.23696576,0.971518,0,0)"
       inkscape:transform-center-x="1.8524815"
       inkscape:transform-center-y="-50.514607" />
    <path
       inkscape:export-ydpi="293.84"
       inkscape:export-xdpi="293.84"
       inkscape:export-filename="/home/siqueira/Pictures/flusp.png"
       sodipodi:nodetypes="cscc"
       inkscape:connector-curvature="0"
       id="path3331"
       d="m 83.447028,80.00832 c 0.991771,0.686468 0.816896,-1.207888 2.221624,-3.697204 1.443101,-2.557302 3.565962,-2.846595 2.786688,-4.046269 -1.737468,-1.665573 -6.590912,6.233267 -5.008312,7.743473 z"
       style="opacity:1;fill:#ffffff;fill-opacity:1;stroke:none;stroke-width:2.5399363;stroke-linecap:round;stroke-linejoin:round;stroke-miterlimit:4;stroke-dasharray:none;stroke-dashoffset:0;stroke-opacity:1"
       inkscape:transform-center-x="11.014129"
       inkscape:transform-center-y="-56.535992" />
    <path
       inkscape:export-ydpi="293.84"
       inkscape:export-xdpi="293.84"
       inkscape:export-filename="/home/siqueira/Pictures/flusp.png"
       sodipodi:nodetypes="cc"
       inkscape:connector-curvature="0"
       id="path3333"
       d="m 72.634378,246.7104 c 12.521909,-3.35474 17.536275,14.29649 4.749357,17.72223"
       style="fill:none;stroke:#693a20;stroke-width:4.44488907;stroke-linecap:butt;stroke-linejoin:miter;stroke-miterlimit:4;stroke-dasharray:none;stroke-opacity:1" />
    <path
       inkscape:export-ydpi="293.84"
       inkscape:export-xdpi="293.84"
       inkscape:export-filename="/home/siqueira/Pictures/flusp.png"
       style="fill:none;stroke:#693a20;stroke-width:4.44488907;stroke-linecap:butt;stroke-linejoin:miter;stroke-miterlimit:4;stroke-dasharray:none;stroke-opacity:1"
       d="m 93.53348,246.7104 c 12.52189,-3.35474 17.53626,14.29649 4.749312,17.72223"
       id="path3335"
       inkscape:connector-curvature="0"
       sodipodi:nodetypes="cc" />
    <path
       inkscape:export-ydpi="293.84"
       inkscape:export-xdpi="293.84"
       inkscape:export-filename="/home/siqueira/Pictures/flusp.png"
       sodipodi:nodetypes="cc"
       inkscape:connector-curvature="0"
       id="path3337"
       d="m 105.68836,92.964951 c -6.519675,6.72296 -21.40218,6.71336 -25.558074,-7.655509"
       style="fill:none;stroke:#ffffff;stroke-width:2.85742855;stroke-linecap:round;stroke-linejoin:round;stroke-miterlimit:4;stroke-dasharray:none;stroke-opacity:1"
       inkscape:transform-center-x="3.9831357"
       inkscape:transform-center-y="-41.317251" />
    <path
       inkscape:export-ydpi="293.84"
       inkscape:export-xdpi="293.84"
       inkscape:export-filename="/home/siqueira/Pictures/flusp.png"
       sodipodi:nodetypes="cc"
       inkscape:connector-curvature="0"
       id="path3339"
       d="m 131.83549,91.647431 c 0.44046,6.89387 4.16026,15.510159 0.54633,20.274349"
       style="fill:none;stroke:#000000;stroke-width:2.53993654;stroke-linecap:round;stroke-linejoin:round;stroke-miterlimit:4;stroke-dasharray:none;stroke-opacity:1"
       inkscape:transform-center-x="-35.998318"
       inkscape:transform-center-y="-30.844269" />
    <path
       inkscape:connector-curvature="0"
       id="path3341"
       d="m 114.89915,142.14199 a 11.286669,11.295063 4.3395442 0 1 0.96794,12.25903 11.286669,11.295063 4.3395442 0 1 -15.3082,4.52696 11.286669,11.295063 4.3395442 0 1 -5.863222,-9.31669 11.286669,11.295063 4.3395442 0 0 3.554037,3.05968 11.286669,11.295063 4.3395442 0 0 15.307895,-4.52681 11.286669,11.295063 4.3395442 0 0 1.34155,-6.00217 z"
       style="opacity:1;fill:#0095ad;fill-opacity:1;stroke:#00ffff;stroke-width:4.44488907;stroke-linecap:round;stroke-linejoin:round;stroke-miterlimit:4;stroke-dasharray:none;stroke-dashoffset:0;stroke-opacity:1"
       inkscape:transform-center-x="-9.0711045"
       inkscape:transform-center-y="18.592275" />
    <ellipse
       cy="78.886703"
       cx="-162.63321"
       id="ellipse3343"
       style="opacity:1;fill:#0095ad;fill-opacity:1;stroke:none;stroke-width:4.44488955;stroke-linecap:round;stroke-linejoin:round;stroke-miterlimit:4;stroke-dasharray:none;stroke-dashoffset:0;stroke-opacity:1"
       transform="matrix(-0.87834866,-0.47802053,-0.47753212,0.87861429,0,0)"
       rx="12.27355"
       ry="12.279609"
       inkscape:transform-center-x="-8.2852752"
       inkscape:transform-center-y="14.424124" />
    <path
       inkscape:connector-curvature="0"
       id="path3347"
       d="m 82.249484,148.4201 a 11.294987,11.286744 88.253801 0 1 2.072636,12.1213 11.294987,11.286744 88.253801 0 1 -14.836219,5.89235 11.294987,11.286744 88.253801 0 1 -6.681786,-8.74835 11.294987,11.286744 88.253801 0 0 3.816199,2.72581 11.294987,11.286744 88.253801 0 0 14.835903,-5.89228 11.294987,11.286744 88.253801 0 0 0.793267,-6.09883 z"
       style="opacity:1;fill:#0095ad;fill-opacity:1;stroke:#00ffff;stroke-width:4.44488907;stroke-linecap:round;stroke-linejoin:round;stroke-miterlimit:4;stroke-dasharray:none;stroke-dashoffset:0;stroke-opacity:1"
       inkscape:transform-center-x="22.870206"
       inkscape:transform-center-y="25.260758" />
    <ellipse
       cy="112.5827"
       cx="-128.11804"
       id="ellipse3349"
       style="opacity:1;fill:#0095ad;fill-opacity:1;stroke:none;stroke-width:4.44488907;stroke-linecap:round;stroke-linejoin:round;stroke-miterlimit:4;stroke-dasharray:none;stroke-dashoffset:0;stroke-opacity:1"
       transform="matrix(-0.91797346,-0.39664182,-0.39612687,0.91819579,0,0)"
       rx="12.27371"
       ry="12.279449"
       inkscape:transform-center-x="23.880531"
       inkscape:transform-center-y="21.561052" />
    <path
       style="opacity:1;fill:#0095ad;fill-opacity:1;stroke:#00ffff;stroke-width:4.44488907;stroke-linecap:round;stroke-linejoin:round;stroke-miterlimit:4;stroke-dasharray:none;stroke-dashoffset:0;stroke-opacity:1"
       d="m 97.419539,149.89892 a 11.286363,11.295369 19.550426 0 1 -1.941509,12.14327 11.286363,11.295369 19.550426 0 1 -15.943305,0.80181 11.286363,11.295369 19.550426 0 1 -3.508307,-10.4339 11.286363,11.295369 19.550426 0 0 2.734995,3.80941 11.286363,11.295369 19.550426 0 0 15.942973,-0.80188 11.286363,11.295369 19.550426 0 0 2.715153,-5.51871 z"
       id="path3353"
       inkscape:connector-curvature="0"
       inkscape:transform-center-x="9.7818034"
       inkscape:transform-center-y="25.201257" />
    <ellipse
       ry="12.280031"
       rx="12.273129"
       transform="matrix(-0.7413532,-0.67111507,-0.67069555,0.74173276,0,0)"
       style="opacity:1;fill:#0095ad;fill-opacity:1;stroke:none;stroke-width:4.44488955;stroke-linecap:round;stroke-linejoin:round;stroke-miterlimit:4;stroke-dasharray:none;stroke-dashoffset:0;stroke-opacity:1"
       id="ellipse3355"
       cx="-166.59987"
       cy="54.70932"
       inkscape:transform-center-x="10.076413"
       inkscape:transform-center-y="19.758499" />
    <path
       inkscape:connector-curvature="0"
       id="path3359"
       d="m 38.653611,185.31349 a 4.1537069,10.083995 4.8832187 0 0 -0.98352,10.93423 4.1537069,10.083995 4.8832187 0 0 5.448875,3.57852 4.1537069,10.083995 4.8832187 0 0 2.649825,-8.46015 4.1537069,10.083995 4.8832187 0 1 -1.474414,2.82613 4.1537069,10.083995 4.8832187 0 1 -5.448761,-3.57846 4.1537069,10.083995 4.8832187 0 1 -0.192005,-5.30027 z"
       style="opacity:1;fill:#0095ad;fill-opacity:1;stroke:#00ffff;stroke-width:4.44488859;stroke-linecap:round;stroke-linejoin:round;stroke-miterlimit:4;stroke-dasharray:none;stroke-dashoffset:0;stroke-opacity:1" />
    <ellipse
       cy="202.18063"
       cx="12.459219"
       id="ellipse3361"
       style="opacity:1;fill:#0095ad;fill-opacity:1;stroke:none;stroke-width:5.17173672;stroke-linecap:round;stroke-linejoin:round;stroke-miterlimit:4;stroke-dasharray:none;stroke-dashoffset:0;stroke-opacity:1"
       transform="matrix(0.61333241,-0.78982489,0.16998927,0.98544591,0,0)"
       rx="7.0083475"
       ry="9.5654163" />
    <path
       style="opacity:1;fill:#0095ad;fill-opacity:1;stroke:#00ffff;stroke-width:4.44488859;stroke-linecap:round;stroke-linejoin:round;stroke-miterlimit:4;stroke-dasharray:none;stroke-dashoffset:0;stroke-opacity:1"
       d="m 40.367217,173.03874 a 10.083986,4.1537105 88.359426 0 0 0.265081,10.97519 10.083986,4.1537105 88.359426 0 0 5.820149,2.93648 10.083986,4.1537105 88.359426 0 0 1.67153,-8.70633 10.083986,4.1537105 88.359426 0 1 -1.143794,2.97529 10.083986,4.1537105 88.359426 0 1 -5.820029,-2.93643 10.083986,4.1537105 88.359426 0 1 -0.792937,-5.2442 z"
       id="path3365"
       inkscape:connector-curvature="0" />
    <ellipse
       ry="9.5654879"
       rx="7.0082383"
       transform="matrix(0.51963937,-0.8543857,0.28084256,0.95975385,0,0)"
       style="opacity:1;fill:#0095ad;fill-opacity:1;stroke:none;stroke-width:5.17171574;stroke-linecap:round;stroke-linejoin:round;stroke-miterlimit:4;stroke-dasharray:none;stroke-dashoffset:0;stroke-opacity:1"
       id="ellipse3367"
       cx="-9.8021498"
       cy="175.39941" />
    <path
       inkscape:export-ydpi="293.84"
       inkscape:export-xdpi="293.84"
       inkscape:export-filename="/home/siqueira/Pictures/flusp.png"
       style="fill:none;stroke:#693a20;stroke-width:4.44488907;stroke-linecap:butt;stroke-linejoin:miter;stroke-miterlimit:4;stroke-dasharray:none;stroke-opacity:1"
       d="m 75.527321,247.4489 c 9.162293,-9.16968 22.337835,3.60359 12.981598,12.96735"
       id="path3371"
       inkscape:connector-curvature="0"
       sodipodi:nodetypes="cc" />
    <path
       inkscape:export-ydpi="293.84"
       inkscape:export-xdpi="293.84"
       inkscape:export-filename="/home/siqueira/Pictures/flusp.png"
       sodipodi:nodetypes="cc"
       inkscape:connector-curvature="0"
       id="path3373"
       d="m 97.393345,247.4489 c 9.162285,-9.16968 22.337835,3.60359 12.981575,12.96735"
       style="fill:none;stroke:#693a20;stroke-width:4.44488907;stroke-linecap:butt;stroke-linejoin:miter;stroke-miterlimit:4;stroke-dasharray:none;stroke-opacity:1" />
  </g>
</svg>
