<?xml version="1.0" encoding="UTF-8" standalone="no"?>
<!-- Created with Inkscape (http://www.inkscape.org/) -->

<svg
   xmlns:dc="http://purl.org/dc/elements/1.1/"
   xmlns:cc="http://creativecommons.org/ns#"
   xmlns:rdf="http://www.w3.org/1999/02/22-rdf-syntax-ns#"
   xmlns:svg="http://www.w3.org/2000/svg"
   xmlns="http://www.w3.org/2000/svg"
   xmlns:sodipodi="http://sodipodi.sourceforge.net/DTD/sodipodi-0.dtd"
   xmlns:inkscape="http://www.inkscape.org/namespaces/inkscape"
   width="210mm"
   height="297mm"
   viewBox="0 0 210 297"
   version="1.1"
   id="svg8"
   inkscape:version="0.92.4 5da689c313, 2019-01-14"
   sodipodi:docname="mr_flusp_beak.svg">
  <defs
     id="defs2" />
  <sodipodi:namedview
     id="base"
     pagecolor="#ffffff"
     bordercolor="#666666"
     borderopacity="1.0"
     inkscape:pageopacity="0.0"
     inkscape:pageshadow="2"
     inkscape:zoom="0.7"
     inkscape:cx="291.99171"
     inkscape:cy="582.89826"
     inkscape:document-units="mm"
     inkscape:current-layer="layer1"
     showgrid="false"
     inkscape:window-width="1366"
     inkscape:window-height="746"
     inkscape:window-x="0"
     inkscape:window-y="22"
     inkscape:window-maximized="1" />
  <metadata
     id="metadata5">
    <rdf:RDF>
      <cc:Work
         rdf:about="">
        <dc:format>image/svg+xml</dc:format>
        <dc:type
           rdf:resource="http://purl.org/dc/dcmitype/StillImage" />
        <dc:title></dc:title>
      </cc:Work>
    </rdf:RDF>
  </metadata>
  <g
     inkscape:label="Camada 1"
     inkscape:groupmode="layer"
     id="layer1">
    <path
       inkscape:export-ydpi="293.84"
       inkscape:export-xdpi="293.84"
       inkscape:export-filename="/home/siqueira/Pictures/flusp.png"
       sodipodi:nodetypes="cccc"
       inkscape:connector-curvature="0"
       id="path3225"
       d="m 50.105676,104.4608 c 26.606176,-0.42673 32.489223,-5.78177 32.489223,19.37145 -22.363523,12.29813 -35.116289,-0.54243 -35.225476,-16.62547 0,-1.52127 1.220365,-2.74598 2.736253,-2.74598 z"
       style="opacity:1;fill:#382810;fill-opacity:1;stroke:#000000;stroke-width:2.16267943;stroke-linecap:round;stroke-linejoin:round;stroke-miterlimit:4;stroke-dasharray:none;stroke-dashoffset:0;stroke-opacity:1" />
    <path
       inkscape:export-ydpi="293.84"
       inkscape:export-xdpi="293.84"
       inkscape:export-filename="/home/siqueira/Pictures/flusp.png"
       sodipodi:nodetypes="ccsscc"
       inkscape:connector-curvature="0"
       id="path3321"
       d="m 76.308694,85.35866 c 10.334336,21.127 3.849126,35.56711 -18.409183,29.84926 -5.411999,-1.51434 -10.048748,-8.80205 -13.636988,-6.83043 -4.40791,2.42207 -6.90743,15.32682 -6.90743,15.32682 -0.455987,1.2162 -2.337225,-1.04607 -2.337225,-2.34548 -3.46518,-34.53805 27.723595,-35.06698 41.290826,-36.00017 z"
       style="opacity:1;fill:#382810;fill-opacity:1;stroke:#000000;stroke-width:2.16267943;stroke-linecap:round;stroke-linejoin:round;stroke-miterlimit:4;stroke-dasharray:none;stroke-dashoffset:0;stroke-opacity:1" />
  </g>
</svg>
