<?xml version="1.0" encoding="UTF-8" standalone="no"?>
<!-- Created with Inkscape (http://www.inkscape.org/) -->

<svg
   xmlns:dc="http://purl.org/dc/elements/1.1/"
   xmlns:cc="http://creativecommons.org/ns#"
   xmlns:rdf="http://www.w3.org/1999/02/22-rdf-syntax-ns#"
   xmlns:svg="http://www.w3.org/2000/svg"
   xmlns="http://www.w3.org/2000/svg"
   xmlns:sodipodi="http://sodipodi.sourceforge.net/DTD/sodipodi-0.dtd"
   xmlns:inkscape="http://www.inkscape.org/namespaces/inkscape"
   width="256.19458mm"
   height="390.88727mm"
   viewBox="0 0 256.19458 390.88727"
   version="1.1"
   id="svg8"
   inkscape:version="0.92.4 (5da689c313, 2019-01-14)"
   sodipodi:docname="flusp_5.svg">
  <defs
     id="defs2" />
  <sodipodi:namedview
     id="base"
     pagecolor="#ffffff"
     bordercolor="#666666"
     borderopacity="1.0"
     inkscape:pageopacity="0.0"
     inkscape:pageshadow="2"
     inkscape:zoom="0.70000002"
     inkscape:cx="225.50387"
     inkscape:cy="913.53239"
     inkscape:document-units="mm"
     inkscape:current-layer="layer1"
     showgrid="false"
     inkscape:window-width="1920"
     inkscape:window-height="1016"
     inkscape:window-x="0"
     inkscape:window-y="27"
     inkscape:window-maximized="1"
     fit-margin-top="0"
     fit-margin-left="0"
     fit-margin-right="0"
     fit-margin-bottom="0" />
  <metadata
     id="metadata5">
    <rdf:RDF>
      <cc:Work
         rdf:about="">
        <dc:format>image/svg+xml</dc:format>
        <dc:type
           rdf:resource="http://purl.org/dc/dcmitype/StillImage" />
        <dc:title></dc:title>
      </cc:Work>
    </rdf:RDF>
  </metadata>
  <g
     inkscape:label="Layer 1"
     inkscape:groupmode="layer"
     id="layer1"
     transform="translate(26.104076,55.681719)">
    <g
       id="g4736"
       transform="translate(-150.43452,-286.50595)"
       style="stroke:none" />
    <g
       id="g1169">
      <rect
         inkscape:export-filename="/home/melissawen/fluspineo.png"
         inkscape:export-ydpi="90.023537"
         inkscape:export-xdpi="90.023537"
         y="-42.531246"
         x="-20.240744"
         height="150.36632"
         width="244.23097"
         id="rect5186"
         style="fill:#ffffff;fill-opacity:1;stroke:none;stroke-width:0.46749792;stroke-linecap:round;stroke-miterlimit:4;stroke-dasharray:none;stroke-opacity:1" />
      <g
         id="g1003">
        <g
           id="g6699"
           transform="matrix(0.46397447,0.05728922,-0.05728922,0.46397447,357.12135,-101.04575)">
          <path
             style="opacity:1;fill:#0095ad;fill-opacity:1;stroke:#000000;stroke-width:6.99999952;stroke-linecap:round;stroke-linejoin:round;stroke-miterlimit:4;stroke-dasharray:none;stroke-dashoffset:0;stroke-opacity:1"
             d="m -671.19721,404.48813 c 24.95971,1.60901 -7.27173,103.91676 -27.5689,104.90396 -24.95977,-1.60902 7.27173,-103.91676 27.5689,-104.90396 z"
             id="path6673"
             inkscape:connector-curvature="0"
             sodipodi:nodetypes="ccc"
             inkscape:export-filename="/home/siqueira/Pictures/flusp.png"
             inkscape:export-xdpi="293.84"
             inkscape:export-ydpi="293.84" />
          <g
             id="g6679">
            <path
               inkscape:connector-curvature="0"
               id="path6675"
               d="m -697.1671,483.37922 a 5.0175308,12.200858 16.219874 0 0 -3.76994,12.73672 5.0175308,12.200858 16.219874 0 0 5.59899,5.54618 5.0175308,12.200858 16.219874 0 0 5.15339,-9.40379 5.0175308,12.200858 16.219874 0 1 -2.41917,3.00067 5.0175308,12.200858 16.219874 0 1 -5.59889,-5.54611 5.0175308,12.200858 16.219874 0 1 1.03562,-6.33367 z"
               style="opacity:1;fill:#0095ad;fill-opacity:1;stroke:#00ffff;stroke-width:6.99999857;stroke-linecap:round;stroke-linejoin:round;stroke-miterlimit:4;stroke-dasharray:none;stroke-dashoffset:0;stroke-opacity:1" />
            <ellipse
               cy="-113.88794"
               cx="-921.7973"
               id="ellipse6677"
               style="opacity:1;fill:#0095ad;fill-opacity:1;stroke:none;stroke-width:8.14799976;stroke-linecap:round;stroke-linejoin:round;stroke-miterlimit:4;stroke-dasharray:none;stroke-dashoffset:0;stroke-opacity:1"
               transform="matrix(0.75648119,-0.65401545,-0.02771511,0.99961586,0,0)"
               rx="8.4714746"
               ry="11.575169" />
          </g>
          <g
             id="g6685"
             transform="translate(0.52916667,-14.287503)">
            <path
               style="opacity:1;fill:#0095ad;fill-opacity:1;stroke:#00ffff;stroke-width:6.99999857;stroke-linecap:round;stroke-linejoin:round;stroke-miterlimit:4;stroke-dasharray:none;stroke-dashoffset:0;stroke-opacity:1"
               d="m -697.1671,483.37922 a 5.0175308,12.200858 16.219874 0 0 -3.76994,12.73672 5.0175308,12.200858 16.219874 0 0 5.59899,5.54618 5.0175308,12.200858 16.219874 0 0 5.15339,-9.40379 5.0175308,12.200858 16.219874 0 1 -2.41917,3.00067 5.0175308,12.200858 16.219874 0 1 -5.59889,-5.54611 5.0175308,12.200858 16.219874 0 1 1.03562,-6.33367 z"
               id="path6681"
               inkscape:connector-curvature="0" />
            <ellipse
               ry="11.575169"
               rx="8.4714746"
               transform="matrix(0.75648119,-0.65401545,-0.02771511,0.99961586,0,0)"
               style="opacity:1;fill:#0095ad;fill-opacity:1;stroke:none;stroke-width:8.14799976;stroke-linecap:round;stroke-linejoin:round;stroke-miterlimit:4;stroke-dasharray:none;stroke-dashoffset:0;stroke-opacity:1"
               id="ellipse6683"
               cx="-921.7973"
               cy="-113.88794" />
          </g>
          <g
             transform="translate(8.9958338,-15.345837)"
             id="g6691">
            <path
               inkscape:connector-curvature="0"
               id="path6687"
               d="m -697.1671,483.37922 a 5.0175308,12.200858 16.219874 0 0 -3.76994,12.73672 5.0175308,12.200858 16.219874 0 0 5.59899,5.54618 5.0175308,12.200858 16.219874 0 0 5.15339,-9.40379 5.0175308,12.200858 16.219874 0 1 -2.41917,3.00067 5.0175308,12.200858 16.219874 0 1 -5.59889,-5.54611 5.0175308,12.200858 16.219874 0 1 1.03562,-6.33367 z"
               style="opacity:1;fill:#0095ad;fill-opacity:1;stroke:#00ffff;stroke-width:6.99999857;stroke-linecap:round;stroke-linejoin:round;stroke-miterlimit:4;stroke-dasharray:none;stroke-dashoffset:0;stroke-opacity:1" />
            <ellipse
               cy="-113.88794"
               cx="-921.7973"
               id="ellipse6689"
               style="opacity:1;fill:#0095ad;fill-opacity:1;stroke:none;stroke-width:8.14799976;stroke-linecap:round;stroke-linejoin:round;stroke-miterlimit:4;stroke-dasharray:none;stroke-dashoffset:0;stroke-opacity:1"
               transform="matrix(0.75648119,-0.65401545,-0.02771511,0.99961586,0,0)"
               rx="8.4714746"
               ry="11.575169" />
          </g>
          <g
             id="g6697"
             transform="translate(8.9958338,-15.345837)">
            <path
               style="opacity:1;fill:#0095ad;fill-opacity:1;stroke:#00ffff;stroke-width:6.99999857;stroke-linecap:round;stroke-linejoin:round;stroke-miterlimit:4;stroke-dasharray:none;stroke-dashoffset:0;stroke-opacity:1"
               d="m -697.1671,483.37922 a 5.0175308,12.200858 16.219874 0 0 -3.76994,12.73672 5.0175308,12.200858 16.219874 0 0 5.59899,5.54618 5.0175308,12.200858 16.219874 0 0 5.15339,-9.40379 5.0175308,12.200858 16.219874 0 1 -2.41917,3.00067 5.0175308,12.200858 16.219874 0 1 -5.59889,-5.54611 5.0175308,12.200858 16.219874 0 1 1.03562,-6.33367 z"
               id="path6693"
               inkscape:connector-curvature="0" />
            <ellipse
               ry="11.575169"
               rx="8.4714746"
               transform="matrix(0.75648119,-0.65401545,-0.02771511,0.99961586,0,0)"
               style="opacity:1;fill:#0095ad;fill-opacity:1;stroke:none;stroke-width:8.14799976;stroke-linecap:round;stroke-linejoin:round;stroke-miterlimit:4;stroke-dasharray:none;stroke-dashoffset:0;stroke-opacity:1"
               id="ellipse6695"
               cx="-921.7973"
               cy="-113.88794" />
          </g>
        </g>
        <g
           id="g6671"
           transform="matrix(0.46688388,-0.02395437,0.02395437,0.46688388,326.58517,-154.49599)">
          <path
             inkscape:export-ydpi="293.84"
             inkscape:export-xdpi="293.84"
             inkscape:export-filename="/home/siqueira/Pictures/flusp.png"
             sodipodi:nodetypes="ccc"
             inkscape:connector-curvature="0"
             id="path6365"
             d="m -671.19721,404.48813 c 24.95971,1.60901 -7.27173,103.91676 -27.5689,104.90396 -24.95977,-1.60902 7.27173,-103.91676 27.5689,-104.90396 z"
             style="opacity:1;fill:#0095ad;fill-opacity:1;stroke:#000000;stroke-width:6.99999952;stroke-linecap:round;stroke-linejoin:round;stroke-miterlimit:4;stroke-dasharray:none;stroke-dashoffset:0;stroke-opacity:1" />
          <g
             id="g6638">
            <path
               style="opacity:1;fill:#0095ad;fill-opacity:1;stroke:#00ffff;stroke-width:6.99999857;stroke-linecap:round;stroke-linejoin:round;stroke-miterlimit:4;stroke-dasharray:none;stroke-dashoffset:0;stroke-opacity:1"
               d="m -697.1671,483.37922 a 5.0175308,12.200858 16.219874 0 0 -3.76994,12.73672 5.0175308,12.200858 16.219874 0 0 5.59899,5.54618 5.0175308,12.200858 16.219874 0 0 5.15339,-9.40379 5.0175308,12.200858 16.219874 0 1 -2.41917,3.00067 5.0175308,12.200858 16.219874 0 1 -5.59889,-5.54611 5.0175308,12.200858 16.219874 0 1 1.03562,-6.33367 z"
               id="path6379"
               inkscape:connector-curvature="0" />
            <ellipse
               ry="11.575169"
               rx="8.4714746"
               transform="matrix(0.75648119,-0.65401545,-0.02771511,0.99961586,0,0)"
               style="opacity:1;fill:#0095ad;fill-opacity:1;stroke:none;stroke-width:8.14799976;stroke-linecap:round;stroke-linejoin:round;stroke-miterlimit:4;stroke-dasharray:none;stroke-dashoffset:0;stroke-opacity:1"
               id="ellipse6381"
               cx="-921.7973"
               cy="-113.88794" />
          </g>
          <g
             transform="translate(0.52916667,-14.287503)"
             id="g6644">
            <path
               inkscape:connector-curvature="0"
               id="path6640"
               d="m -697.1671,483.37922 a 5.0175308,12.200858 16.219874 0 0 -3.76994,12.73672 5.0175308,12.200858 16.219874 0 0 5.59899,5.54618 5.0175308,12.200858 16.219874 0 0 5.15339,-9.40379 5.0175308,12.200858 16.219874 0 1 -2.41917,3.00067 5.0175308,12.200858 16.219874 0 1 -5.59889,-5.54611 5.0175308,12.200858 16.219874 0 1 1.03562,-6.33367 z"
               style="opacity:1;fill:#0095ad;fill-opacity:1;stroke:#00ffff;stroke-width:6.99999857;stroke-linecap:round;stroke-linejoin:round;stroke-miterlimit:4;stroke-dasharray:none;stroke-dashoffset:0;stroke-opacity:1" />
            <ellipse
               cy="-113.88794"
               cx="-921.7973"
               id="ellipse6642"
               style="opacity:1;fill:#0095ad;fill-opacity:1;stroke:none;stroke-width:8.14799976;stroke-linecap:round;stroke-linejoin:round;stroke-miterlimit:4;stroke-dasharray:none;stroke-dashoffset:0;stroke-opacity:1"
               transform="matrix(0.75648119,-0.65401545,-0.02771511,0.99961586,0,0)"
               rx="8.4714746"
               ry="11.575169" />
          </g>
          <g
             id="g6650"
             transform="translate(8.9958338,-15.345837)">
            <path
               style="opacity:1;fill:#0095ad;fill-opacity:1;stroke:#00ffff;stroke-width:6.99999857;stroke-linecap:round;stroke-linejoin:round;stroke-miterlimit:4;stroke-dasharray:none;stroke-dashoffset:0;stroke-opacity:1"
               d="m -697.1671,483.37922 a 5.0175308,12.200858 16.219874 0 0 -3.76994,12.73672 5.0175308,12.200858 16.219874 0 0 5.59899,5.54618 5.0175308,12.200858 16.219874 0 0 5.15339,-9.40379 5.0175308,12.200858 16.219874 0 1 -2.41917,3.00067 5.0175308,12.200858 16.219874 0 1 -5.59889,-5.54611 5.0175308,12.200858 16.219874 0 1 1.03562,-6.33367 z"
               id="path6646"
               inkscape:connector-curvature="0" />
            <ellipse
               ry="11.575169"
               rx="8.4714746"
               transform="matrix(0.75648119,-0.65401545,-0.02771511,0.99961586,0,0)"
               style="opacity:1;fill:#0095ad;fill-opacity:1;stroke:none;stroke-width:8.14799976;stroke-linecap:round;stroke-linejoin:round;stroke-miterlimit:4;stroke-dasharray:none;stroke-dashoffset:0;stroke-opacity:1"
               id="ellipse6648"
               cx="-921.7973"
               cy="-113.88794" />
          </g>
          <g
             transform="translate(8.9958338,-15.345837)"
             id="g6656">
            <path
               inkscape:connector-curvature="0"
               id="path6652"
               d="m -697.1671,483.37922 a 5.0175308,12.200858 16.219874 0 0 -3.76994,12.73672 5.0175308,12.200858 16.219874 0 0 5.59899,5.54618 5.0175308,12.200858 16.219874 0 0 5.15339,-9.40379 5.0175308,12.200858 16.219874 0 1 -2.41917,3.00067 5.0175308,12.200858 16.219874 0 1 -5.59889,-5.54611 5.0175308,12.200858 16.219874 0 1 1.03562,-6.33367 z"
               style="opacity:1;fill:#0095ad;fill-opacity:1;stroke:#00ffff;stroke-width:6.99999857;stroke-linecap:round;stroke-linejoin:round;stroke-miterlimit:4;stroke-dasharray:none;stroke-dashoffset:0;stroke-opacity:1" />
            <ellipse
               cy="-113.88794"
               cx="-921.7973"
               id="ellipse6654"
               style="opacity:1;fill:#0095ad;fill-opacity:1;stroke:none;stroke-width:8.14799976;stroke-linecap:round;stroke-linejoin:round;stroke-miterlimit:4;stroke-dasharray:none;stroke-dashoffset:0;stroke-opacity:1"
               transform="matrix(0.75648119,-0.65401545,-0.02771511,0.99961586,0,0)"
               rx="8.4714746"
               ry="11.575169" />
          </g>
        </g>
        <g
           transform="matrix(0.46205603,-0.07112379,0.07112379,0.46205603,308.40248,-184.45933)"
           id="g7062">
          <path
             style="opacity:1;fill:#0095ad;fill-opacity:1;stroke:#000000;stroke-width:6.99999952;stroke-linecap:round;stroke-linejoin:round;stroke-miterlimit:4;stroke-dasharray:none;stroke-dashoffset:0;stroke-opacity:1"
             d="m -671.19721,404.48813 c 24.95971,1.60901 -7.27173,103.91676 -27.5689,104.90396 -24.95977,-1.60902 7.27173,-103.91676 27.5689,-104.90396 z"
             id="path7036"
             inkscape:connector-curvature="0"
             sodipodi:nodetypes="ccc"
             inkscape:export-filename="/home/siqueira/Pictures/flusp.png"
             inkscape:export-xdpi="293.84"
             inkscape:export-ydpi="293.84" />
          <g
             id="g7042">
            <path
               inkscape:connector-curvature="0"
               id="path7038"
               d="m -697.1671,483.37922 a 5.0175308,12.200858 16.219874 0 0 -3.76994,12.73672 5.0175308,12.200858 16.219874 0 0 5.59899,5.54618 5.0175308,12.200858 16.219874 0 0 5.15339,-9.40379 5.0175308,12.200858 16.219874 0 1 -2.41917,3.00067 5.0175308,12.200858 16.219874 0 1 -5.59889,-5.54611 5.0175308,12.200858 16.219874 0 1 1.03562,-6.33367 z"
               style="opacity:1;fill:#0095ad;fill-opacity:1;stroke:#00ffff;stroke-width:6.99999857;stroke-linecap:round;stroke-linejoin:round;stroke-miterlimit:4;stroke-dasharray:none;stroke-dashoffset:0;stroke-opacity:1" />
            <ellipse
               cy="-113.88794"
               cx="-921.7973"
               id="ellipse7040"
               style="opacity:1;fill:#0095ad;fill-opacity:1;stroke:none;stroke-width:8.14799976;stroke-linecap:round;stroke-linejoin:round;stroke-miterlimit:4;stroke-dasharray:none;stroke-dashoffset:0;stroke-opacity:1"
               transform="matrix(0.75648119,-0.65401545,-0.02771511,0.99961586,0,0)"
               rx="8.4714746"
               ry="11.575169" />
          </g>
          <g
             id="g7048"
             transform="translate(0.52916667,-14.287503)">
            <path
               style="opacity:1;fill:#0095ad;fill-opacity:1;stroke:#00ffff;stroke-width:6.99999857;stroke-linecap:round;stroke-linejoin:round;stroke-miterlimit:4;stroke-dasharray:none;stroke-dashoffset:0;stroke-opacity:1"
               d="m -697.1671,483.37922 a 5.0175308,12.200858 16.219874 0 0 -3.76994,12.73672 5.0175308,12.200858 16.219874 0 0 5.59899,5.54618 5.0175308,12.200858 16.219874 0 0 5.15339,-9.40379 5.0175308,12.200858 16.219874 0 1 -2.41917,3.00067 5.0175308,12.200858 16.219874 0 1 -5.59889,-5.54611 5.0175308,12.200858 16.219874 0 1 1.03562,-6.33367 z"
               id="path7044"
               inkscape:connector-curvature="0" />
            <ellipse
               ry="11.575169"
               rx="8.4714746"
               transform="matrix(0.75648119,-0.65401545,-0.02771511,0.99961586,0,0)"
               style="opacity:1;fill:#0095ad;fill-opacity:1;stroke:none;stroke-width:8.14799976;stroke-linecap:round;stroke-linejoin:round;stroke-miterlimit:4;stroke-dasharray:none;stroke-dashoffset:0;stroke-opacity:1"
               id="ellipse7046"
               cx="-921.7973"
               cy="-113.88794" />
          </g>
          <g
             transform="translate(8.9958338,-15.345837)"
             id="g7054">
            <path
               inkscape:connector-curvature="0"
               id="path7050"
               d="m -697.1671,483.37922 a 5.0175308,12.200858 16.219874 0 0 -3.76994,12.73672 5.0175308,12.200858 16.219874 0 0 5.59899,5.54618 5.0175308,12.200858 16.219874 0 0 5.15339,-9.40379 5.0175308,12.200858 16.219874 0 1 -2.41917,3.00067 5.0175308,12.200858 16.219874 0 1 -5.59889,-5.54611 5.0175308,12.200858 16.219874 0 1 1.03562,-6.33367 z"
               style="opacity:1;fill:#0095ad;fill-opacity:1;stroke:#00ffff;stroke-width:6.99999857;stroke-linecap:round;stroke-linejoin:round;stroke-miterlimit:4;stroke-dasharray:none;stroke-dashoffset:0;stroke-opacity:1" />
            <ellipse
               cy="-113.88794"
               cx="-921.7973"
               id="ellipse7052"
               style="opacity:1;fill:#0095ad;fill-opacity:1;stroke:none;stroke-width:8.14799976;stroke-linecap:round;stroke-linejoin:round;stroke-miterlimit:4;stroke-dasharray:none;stroke-dashoffset:0;stroke-opacity:1"
               transform="matrix(0.75648119,-0.65401545,-0.02771511,0.99961586,0,0)"
               rx="8.4714746"
               ry="11.575169" />
          </g>
          <g
             id="g7060"
             transform="translate(8.9958338,-15.345837)">
            <path
               style="opacity:1;fill:#0095ad;fill-opacity:1;stroke:#00ffff;stroke-width:6.99999857;stroke-linecap:round;stroke-linejoin:round;stroke-miterlimit:4;stroke-dasharray:none;stroke-dashoffset:0;stroke-opacity:1"
               d="m -697.1671,483.37922 a 5.0175308,12.200858 16.219874 0 0 -3.76994,12.73672 5.0175308,12.200858 16.219874 0 0 5.59899,5.54618 5.0175308,12.200858 16.219874 0 0 5.15339,-9.40379 5.0175308,12.200858 16.219874 0 1 -2.41917,3.00067 5.0175308,12.200858 16.219874 0 1 -5.59889,-5.54611 5.0175308,12.200858 16.219874 0 1 1.03562,-6.33367 z"
               id="path7056"
               inkscape:connector-curvature="0" />
            <ellipse
               ry="11.575169"
               rx="8.4714746"
               transform="matrix(0.75648119,-0.65401545,-0.02771511,0.99961586,0,0)"
               style="opacity:1;fill:#0095ad;fill-opacity:1;stroke:none;stroke-width:8.14799976;stroke-linecap:round;stroke-linejoin:round;stroke-miterlimit:4;stroke-dasharray:none;stroke-dashoffset:0;stroke-opacity:1"
               id="ellipse7058"
               cx="-921.7973"
               cy="-113.88794" />
          </g>
        </g>
        <g
           id="g4729"
           transform="matrix(0.41176353,0,0,0.38594342,43.780286,-1.4612746)"
           style="fill:#ffb500;fill-opacity:1;stroke-width:1.172719">
          <flowRoot
             transform="matrix(0.64069306,0,0,0.65432504,1002.1206,16.275567)"
             style="font-style:normal;font-variant:normal;font-weight:normal;font-stretch:normal;font-size:21.33333397px;line-height:1.25;font-family:'Latin Modern Math';-inkscape-font-specification:'Latin Modern Math, Normal';font-variant-ligatures:normal;font-variant-caps:normal;font-variant-numeric:normal;font-feature-settings:normal;text-align:start;letter-spacing:0px;word-spacing:0px;writing-mode:lr-tb;text-anchor:start;fill:#ffb500;fill-opacity:1;stroke:#000000;stroke-width:18.11224174;stroke-linecap:round;stroke-linejoin:round;stroke-miterlimit:4;stroke-dasharray:none;stroke-opacity:1"
             id="flowRoot66"
             xml:space="preserve"><flowRegion
               style="fill:#ffb500;fill-opacity:1;stroke:#000000;stroke-width:18.11224174;stroke-linecap:round;stroke-linejoin:round;stroke-miterlimit:4;stroke-dasharray:none;stroke-opacity:1"
               id="flowRegion68"><rect
                 style="fill:#ffb500;fill-opacity:1;stroke:#000000;stroke-width:18.11224174;stroke-linecap:round;stroke-linejoin:round;stroke-miterlimit:4;stroke-dasharray:none;stroke-opacity:1"
                 y="-5.4879408"
                 x="-1442.8572"
                 height="560"
                 width="1042.8572"
                 id="rect70" /></flowRegion><flowPara
               style="font-style:normal;font-variant:normal;font-weight:normal;font-stretch:normal;font-size:266.66665649px;font-family:Bebas;-inkscape-font-specification:Bebas;fill:#ffb500;fill-opacity:1;stroke:#000000;stroke-width:18.11224174;stroke-linecap:round;stroke-linejoin:round;stroke-miterlimit:4;stroke-dasharray:none;stroke-opacity:1"
               id="flowPara72">FLUSP</flowPara></flowRoot>          <flowRoot
             xml:space="preserve"
             id="flowRoot885"
             style="font-style:normal;font-variant:normal;font-weight:normal;font-stretch:normal;font-size:21.33333397px;line-height:1.25;font-family:'Latin Modern Math';-inkscape-font-specification:'Latin Modern Math, Normal';font-variant-ligatures:normal;font-variant-caps:normal;font-variant-numeric:normal;font-feature-settings:normal;text-align:start;letter-spacing:0px;word-spacing:0px;writing-mode:lr-tb;text-anchor:start;fill:#ffb500;fill-opacity:1;stroke:none;stroke-width:5.43367243;stroke-miterlimit:4;stroke-dasharray:none"
             transform="matrix(0.64069306,0,0,0.65432504,1002.1206,16.275567)"><flowRegion
               id="flowRegion881"
               style="fill:#ffb500;fill-opacity:1;stroke:none;stroke-width:5.43367243;stroke-miterlimit:4;stroke-dasharray:none"><rect
                 id="rect879"
                 width="1042.8572"
                 height="560"
                 x="-1442.8572"
                 y="-5.4879408"
                 style="fill:#ffb500;fill-opacity:1;stroke:none;stroke-width:5.43367243;stroke-miterlimit:4;stroke-dasharray:none" /></flowRegion><flowPara
               id="flowPara883"
               style="font-style:normal;font-variant:normal;font-weight:normal;font-stretch:normal;font-size:266.66665649px;font-family:Bebas;-inkscape-font-specification:Bebas;fill:#ffb500;fill-opacity:1;stroke:none;stroke-width:5.43367243;stroke-miterlimit:4;stroke-dasharray:none">FLUSP</flowPara></flowRoot>        </g>
        <rect
           y="82.587799"
           x="-35.490059"
           height="6.2448206"
           width="36.484821"
           id="rect8008"
           style="fill:#ffffff;fill-opacity:1;stroke:#ffffff;stroke-width:4.67497969;stroke-linecap:round;stroke-miterlimit:4;stroke-dasharray:none;stroke-opacity:1"
           transform="scale(-1,1)" />
        <rect
           style="fill:#000000;fill-opacity:1;stroke:#000000;stroke-width:1.8699919;stroke-linecap:round;stroke-miterlimit:4;stroke-dasharray:none;stroke-opacity:1"
           id="rect7194"
           width="232.90303"
           height="7.0812392"
           x="-14.576774"
           y="82.212448" />
        <path
           inkscape:export-ydpi="293.84"
           inkscape:export-xdpi="293.84"
           inkscape:export-filename="/home/siqueira/Pictures/flusp.png"
           sodipodi:nodetypes="ccc"
           inkscape:connector-curvature="0"
           id="path3223"
           d="M 54.664461,26.835467 C 68.566094,27.988228 61.624786,73.887906 50.296487,74.23061 36.394855,73.077891 43.336185,27.178204 54.664461,26.835467 Z"
           style="opacity:1;fill:#0095ad;fill-opacity:1;stroke:#000000;stroke-width:3.27248573;stroke-linecap:round;stroke-linejoin:round;stroke-miterlimit:4;stroke-dasharray:none;stroke-dashoffset:0;stroke-opacity:1" />
        <path
           inkscape:export-ydpi="293.84"
           inkscape:export-xdpi="293.84"
           inkscape:export-filename="/home/siqueira/Pictures/flusp.png"
           sodipodi:nodetypes="cczac"
           inkscape:connector-curvature="0"
           id="path3227"
           d="m 20.273588,22.160333 h 19.361355 c 21.227737,-7.224387 21.389903,31.786712 9.41842,45.628323 -11.971515,13.841647 -33.7358,11.269824 -42.1566432,0 C -2.5855058,55.098296 2.070067,15.95037 20.273588,22.160333 Z"
           style="opacity:1;fill:#0095ad;fill-opacity:1;stroke:#000000;stroke-width:3.27248573;stroke-linecap:round;stroke-linejoin:round;stroke-miterlimit:4;stroke-dasharray:none;stroke-dashoffset:0;stroke-opacity:1" />
        <g
           id="g685"
           transform="translate(9.8960403)">
          <path
             style="opacity:1;fill:#0095ad;fill-opacity:1;stroke:#000000;stroke-width:3.27248573;stroke-linecap:round;stroke-linejoin:round;stroke-miterlimit:4;stroke-dasharray:none;stroke-dashoffset:0;stroke-opacity:1"
             d="m -9.4396478,-8.5091434 c -0.6562172,5.907384 0.08486,16.1300317 1.8446256,22.0943244 3.0999043,10.506255 9.3608478,14.915916 16.7134598,10.130644 2.7909444,4.551271 5.7543534,1.963323 7.4173134,0 1.817385,3.904052 5.358243,2.954611 7.417314,0 1.142504,2.619812 4.22865,4.102056 7.417351,0 1.430511,3.416256 5.83388,3.26452 7.417314,0 10.78078,1.288551 8.4614,-2.349276 9.885306,-9.486801 0.17986,-0.901556 0.02978,-6.9511951 0.137547,-7.888566 0.574261,-4.9949495 6.81131,-7.24727067 6.894394,-11.2719842 C 54.947499,-49.646797 -5.9495883,-39.927145 -9.4396478,-8.5091434 Z"
             id="path3231"
             inkscape:connector-curvature="0"
             sodipodi:nodetypes="sscccccsscs"
             inkscape:export-filename="/home/siqueira/Pictures/flusp.png"
             inkscape:export-xdpi="293.84"
             inkscape:export-ydpi="293.84" />
          <path
             style="opacity:1;fill:#382810;fill-opacity:1;stroke:#000000;stroke-width:1.8699919;stroke-linecap:round;stroke-linejoin:round;stroke-miterlimit:4;stroke-dasharray:none;stroke-dashoffset:0;stroke-opacity:1"
             d="M 69.489908,-0.21939428 C 51.814117,-0.50239418 47.905722,-4.0537894 47.905722,12.627516 c 14.857189,8.155975 23.329477,-0.35973 23.402014,-11.0258093 0,-1.00888867 -0.810749,-1.82110098 -1.817828,-1.82110098 z"
             id="path3225"
             inkscape:connector-curvature="0"
             sodipodi:nodetypes="cccc"
             inkscape:export-filename="/home/siqueira/Pictures/flusp.png"
             inkscape:export-xdpi="293.84"
             inkscape:export-ydpi="293.84" />
          <path
             style="opacity:1;fill:#0095ad;fill-opacity:1;stroke:#000000;stroke-width:3.27248573;stroke-linecap:round;stroke-linejoin:round;stroke-miterlimit:4;stroke-dasharray:none;stroke-dashoffset:0;stroke-opacity:1"
             d="m 47.950195,7.3960685 c 1.914947,2.255388 3.228696,4.7101635 3.233408,8.1106175 8.9e-5,4.757966 -3.850122,8.615081 -8.599574,8.614997 -2.983586,-0.0042 -5.751675,-1.557778 -7.313819,-4.104281 1.098466,0.493439 2.288113,0.750329 3.491948,0.75405 4.749307,-1.8e-5 8.599378,-3.856994 8.599392,-8.614814 -0.0037,-1.593743 1.42541,-3.4050871 0.588645,-4.7605695 z"
             id="path3233"
             inkscape:connector-curvature="0"
             sodipodi:nodetypes="ccccccc" />
          <ellipse
             transform="scale(-1,1)"
             ry="9.3669271"
             rx="9.3501673"
             style="opacity:1;fill:#0095ad;fill-opacity:1;stroke:none;stroke-width:3.27248573;stroke-linecap:round;stroke-linejoin:round;stroke-miterlimit:4;stroke-dasharray:none;stroke-dashoffset:0;stroke-opacity:1"
             id="circle3235"
             cx="-41.355591"
             cy="14.481204" />
          <path
             inkscape:connector-curvature="0"
             id="path3239"
             d="m 41.089891,16.569604 a 6.3729134,6.3898097 1.748186 0 1 0.07418,6.95644 6.3729134,6.3898097 1.748186 0 1 -8.797457,1.965231 6.3729134,6.3898097 1.748186 0 1 -2.944872,-5.484364 6.3729134,6.3898097 1.748186 0 0 1.884493,1.863849 6.3729134,6.3898097 1.748186 0 0 8.797275,-1.965151 6.3729134,6.3898097 1.748186 0 0 0.986383,-3.336005 z"
             style="opacity:1;fill:#00c5d4;fill-opacity:1;stroke:#00ffff;stroke-width:3.27248573;stroke-linecap:round;stroke-linejoin:round;stroke-miterlimit:4;stroke-dasharray:none;stroke-dashoffset:0;stroke-opacity:1" />
          <ellipse
             cy="-3.0447612"
             cx="-40.074421"
             id="ellipse3241"
             style="opacity:1;fill:#0095ad;fill-opacity:1;stroke:none;stroke-width:3.27249026;stroke-linecap:round;stroke-linejoin:round;stroke-miterlimit:4;stroke-dasharray:none;stroke-dashoffset:0;stroke-opacity:1"
             transform="matrix(-0.84329053,-0.53745799,-0.53549627,0.84453759,0,0)"
             rx="6.934073"
             ry="6.9428678" />
          <ellipse
             transform="scale(-1,1)"
             style="opacity:1;fill:#ffb500;fill-opacity:1;stroke:none;stroke-width:1.8699919;stroke-linecap:round;stroke-linejoin:round;stroke-miterlimit:4;stroke-dasharray:none;stroke-dashoffset:0;stroke-opacity:1"
             id="ellipse3317"
             cx="-28.380539"
             cy="-15.220191"
             rx="17.798044"
             ry="18.216719"
             inkscape:export-filename="/home/siqueira/Pictures/flusp.png"
             inkscape:export-xdpi="293.84"
             inkscape:export-ydpi="293.84" />
          <ellipse
             transform="scale(-1,1)"
             cy="-13.769811"
             cx="-30.214407"
             id="ellipse3319"
             style="opacity:1;fill:#ffffff;fill-opacity:1;stroke:none;stroke-width:1.8699919;stroke-linecap:round;stroke-linejoin:round;stroke-miterlimit:4;stroke-dasharray:none;stroke-dashoffset:0;stroke-opacity:1"
             inkscape:export-filename="/home/siqueira/Pictures/flusp.png"
             inkscape:export-xdpi="293.84"
             inkscape:export-ydpi="293.84"
             rx="13.643703"
             ry="13.668159" />
          <path
             style="opacity:1;fill:#382810;fill-opacity:1;stroke:#000000;stroke-width:1.8699919;stroke-linecap:round;stroke-linejoin:round;stroke-miterlimit:4;stroke-dasharray:none;stroke-dashoffset:0;stroke-opacity:1"
             d="M 52.081956,-12.887697 C 45.216351,1.1234703 49.524794,10.69997 64.312082,6.9079679 c 3.595457,-1.0042932 6.675876,-5.8374137 9.059719,-4.5298592 2.928393,1.6062857 4.588946,10.1645563 4.588946,10.1645563 0.302934,0.806574 1.552734,-0.693739 1.552734,-1.555492 2.302091,-22.905209 -18.418145,-23.255991 -27.431525,-23.87487 z"
             id="path3321"
             inkscape:connector-curvature="0"
             sodipodi:nodetypes="ccsscc"
             inkscape:export-filename="/home/siqueira/Pictures/flusp.png"
             inkscape:export-xdpi="293.84"
             inkscape:export-ydpi="293.84" />
          <path
             sodipodi:nodetypes="ccc"
             inkscape:connector-curvature="0"
             id="path3323"
             d="m 20.252057,-17.944679 c -4.65909,5.716711 0.750264,14.4867812 8.610219,14.7485894 C 26.740485,-8.3662012 24.330182,-14.30696 20.252057,-17.944679 Z"
             style="opacity:0.7;fill:#cccccc;fill-opacity:1;stroke:none;stroke-width:0.12369218px;stroke-linecap:butt;stroke-linejoin:miter;stroke-opacity:1"
             inkscape:export-filename="/home/siqueira/Pictures/flusp.png"
             inkscape:export-xdpi="293.84"
             inkscape:export-ydpi="293.84" />
          <path
             style="fill:#9c9c9c;stroke:none;stroke-width:0.12369218px;stroke-linecap:butt;stroke-linejoin:miter;stroke-opacity:1"
             d="m 20.456811,-17.944679 c -3.288909,6.677536 1.05497,14.7004886 8.61021,14.7485894 -2.121782,-5.1701116 -4.532084,-11.1108704 -8.61021,-14.7485894 z"
             id="path3325"
             inkscape:connector-curvature="0"
             sodipodi:nodetypes="ccc"
             inkscape:export-filename="/home/siqueira/Pictures/flusp.png"
             inkscape:export-xdpi="293.84"
             inkscape:export-ydpi="293.84" />
          <ellipse
             transform="scale(-1,1)"
             style="opacity:1;fill:#e37404;fill-opacity:1;stroke:#000000;stroke-width:1.40249395;stroke-linecap:round;stroke-linejoin:round;stroke-miterlimit:4;stroke-dasharray:none;stroke-dashoffset:0;stroke-opacity:1"
             id="ellipse3327"
             cx="-30.214407"
             cy="-13.769811"
             inkscape:export-filename="/home/siqueira/Pictures/flusp.png"
             inkscape:export-xdpi="293.84"
             inkscape:export-ydpi="293.84"
             rx="10.169011"
             ry="10.187239" />
          <ellipse
             transform="scale(-1,1)"
             style="opacity:1;fill:#000000;fill-opacity:1;stroke:none;stroke-width:1.8699919;stroke-linecap:round;stroke-linejoin:round;stroke-miterlimit:4;stroke-dasharray:none;stroke-dashoffset:0;stroke-opacity:1"
             id="ellipse3329"
             cx="-30.214407"
             cy="-13.769811"
             rx="7.3845224"
             ry="7.6011152"
             inkscape:export-filename="/home/siqueira/Pictures/flusp.png"
             inkscape:export-xdpi="293.84"
             inkscape:export-ydpi="293.84" />
          <path
             style="opacity:1;fill:#ffffff;fill-opacity:1;stroke:none;stroke-width:1.8699919;stroke-linecap:round;stroke-linejoin:round;stroke-miterlimit:4;stroke-dasharray:none;stroke-dashoffset:0;stroke-opacity:1"
             d="m 24.136867,-16.481401 c 0.452187,0.510246 0.609725,-0.554359 1.713347,-1.734207 1.133776,-1.212068 2.336976,-1.086484 2.07002,-1.85031 -0.730236,-1.148339 -4.449444,2.542329 -3.783367,3.584517 z"
             id="path3331"
             inkscape:connector-curvature="0"
             sodipodi:nodetypes="cscc"
             inkscape:export-filename="/home/siqueira/Pictures/flusp.png"
             inkscape:export-xdpi="293.84"
             inkscape:export-ydpi="293.84" />
          <path
             style="fill:none;stroke:#ffffff;stroke-width:2.10374093;stroke-linecap:round;stroke-linejoin:round;stroke-miterlimit:4;stroke-dasharray:none;stroke-opacity:1"
             d="M 34.603759,-6.3786335 C 30.127877,-3.5576198 21.965371,-5.5580109 21.608184,-14.012464"
             id="path3337"
             inkscape:connector-curvature="0"
             sodipodi:nodetypes="cc"
             inkscape:export-filename="/home/siqueira/Pictures/flusp.png"
             inkscape:export-xdpi="293.84"
             inkscape:export-ydpi="293.84" />
          <path
             style="fill:none;stroke:#000000;stroke-width:1.8699919;stroke-linecap:round;stroke-linejoin:round;stroke-miterlimit:4;stroke-dasharray:none;stroke-opacity:1"
             d="M 49.123031,-4.0922972 C 48.44226,-0.24428854 49.329903,4.9900153 46.710059,7.1240034"
             id="path3339"
             inkscape:connector-curvature="0"
             sodipodi:nodetypes="cc"
             inkscape:export-filename="/home/siqueira/Pictures/flusp.png"
             inkscape:export-xdpi="293.84"
             inkscape:export-ydpi="293.84" />
          <path
             style="opacity:1;fill:#0095ad;fill-opacity:1;stroke:#00ffff;stroke-width:3.27248573;stroke-linecap:round;stroke-linejoin:round;stroke-miterlimit:4;stroke-dasharray:none;stroke-dashoffset:0;stroke-opacity:1"
             d="m 33.076536,21.389756 a 6.3731397,6.389583 4.893152 0 1 -1.109274,6.867499 6.3731397,6.389583 4.893152 0 1 -9.003007,0.435885 6.3731397,6.389583 4.893152 0 1 -1.969713,-5.906598 6.3731397,6.389583 4.893152 0 0 1.540186,2.158092 6.3731397,6.389583 4.893152 0 0 9.002819,-0.435848 6.3731397,6.389583 4.893152 0 0 1.538989,-3.11903 z"
             id="path3341"
             inkscape:connector-curvature="0" />
          <ellipse
             ry="6.9408288"
             rx="6.9361138"
             transform="matrix(-0.73940772,-0.67325792,-0.67141797,0.74107889,0,0)"
             style="opacity:1;fill:#0095ad;fill-opacity:1;stroke:none;stroke-width:3.27249146;stroke-linecap:round;stroke-linejoin:round;stroke-miterlimit:4;stroke-dasharray:none;stroke-dashoffset:0;stroke-opacity:1"
             id="ellipse3343"
             cx="-35.372242"
             cy="-1.3884727" />
          <path
             style="opacity:1;fill:#0095ad;fill-opacity:1;stroke:#00ffff;stroke-width:3.27248573;stroke-linecap:round;stroke-linejoin:round;stroke-miterlimit:4;stroke-dasharray:none;stroke-dashoffset:0;stroke-opacity:1"
             d="m 14.32658,20.463343 a 6.3729929,6.3897293 3.240734 0 1 -0.484865,6.939882 6.3729929,6.3897293 3.240734 0 1 -8.9267856,1.249608 6.3729929,6.3897293 3.240734 0 1 -2.4947749,-5.703957 6.3729929,6.3897293 3.240734 0 0 1.7286626,2.009732 6.3729929,6.3897293 3.240734 0 0 8.9265979,-1.249609 6.3729929,6.3897293 3.240734 0 0 1.251165,-3.245656 z"
             id="path3347"
             inkscape:connector-curvature="0" />
          <ellipse
             ry="6.9419327"
             rx="6.9350095"
             transform="matrix(-0.79727457,-0.60361682,-0.60168128,0.79873627,0,0)"
             style="opacity:1;fill:#0095ad;fill-opacity:1;stroke:none;stroke-width:3.2724905;stroke-linecap:round;stroke-linejoin:round;stroke-miterlimit:4;stroke-dasharray:none;stroke-dashoffset:0;stroke-opacity:1"
             id="ellipse3349"
             cx="-20.254539"
             cy="12.732815" />
          <path
             inkscape:connector-curvature="0"
             id="path3353"
             d="m 22.450237,23.309794 a 6.3737919,6.388929 8.982304 0 1 -2.689759,6.413824 6.3737919,6.388929 8.982304 0 1 -8.852977,-1.696629 6.3737919,6.388929 8.982304 0 1 -0.528436,-6.204938 6.3737919,6.388929 8.982304 0 0 0.990586,2.460349 6.3737919,6.388929 8.982304 0 0 8.852794,1.696559 6.3737919,6.388929 8.982304 0 0 2.227792,-2.669165 z"
             style="opacity:1;fill:#0095ad;fill-opacity:1;stroke:#00ffff;stroke-width:3.27248573;stroke-linecap:round;stroke-linejoin:round;stroke-miterlimit:4;stroke-dasharray:none;stroke-dashoffset:0;stroke-opacity:1" />
          <ellipse
             cy="-0.46586132"
             cx="-28.397184"
             id="ellipse3355"
             style="opacity:1;fill:#0095ad;fill-opacity:1;stroke:none;stroke-width:3.27249074;stroke-linecap:round;stroke-linejoin:round;stroke-miterlimit:4;stroke-dasharray:none;stroke-dashoffset:0;stroke-opacity:1"
             transform="matrix(-0.56046144,-0.82818052,-0.82685155,0.56242023,0,0)"
             rx="6.9390044"
             ry="6.9379354" />
        </g>
        <path
           inkscape:export-ydpi="293.84"
           inkscape:export-xdpi="293.84"
           inkscape:export-filename="/home/siqueira/Pictures/flusp.png"
           sodipodi:nodetypes="ccc"
           inkscape:connector-curvature="0"
           id="path3229"
           d="M 6.6105831,25.684609 C 18.263426,26.650857 2.319977,74.194902 -7.1757785,74.48218 -18.828654,73.515922 -2.8851725,25.971881 6.6105831,25.684609 Z"
           style="opacity:1;fill:#0095ad;fill-opacity:1;stroke:#000000;stroke-width:3.27248573;stroke-linecap:round;stroke-linejoin:round;stroke-miterlimit:4;stroke-dasharray:none;stroke-dashoffset:0;stroke-opacity:1" />
        <path
           inkscape:connector-curvature="0"
           id="path3245"
           d="m -5.1434493,47.252988 a 2.3456856,5.7038766 17.271554 0 0 -1.8714312,5.921035 2.3456856,5.7038766 17.271554 0 0 2.5694899,2.640434 2.3456856,5.7038766 17.271554 0 0 2.4894824,-4.351289 2.3456856,5.7038766 17.271554 0 1 -1.1565143,1.381802 2.3456856,5.7038766 17.271554 0 1 -2.5694386,-2.640391 2.3456856,5.7038766 17.271554 0 1 0.5384118,-2.951591 z"
           style="opacity:1;fill:#0095ad;fill-opacity:1;stroke:#00ffff;stroke-width:3.27248526;stroke-linecap:round;stroke-linejoin:round;stroke-miterlimit:4;stroke-dasharray:none;stroke-dashoffset:0;stroke-opacity:1" />
        <ellipse
           cy="48.681"
           cx="-2.013315"
           id="ellipse3247"
           style="opacity:1;fill:#0095ad;fill-opacity:1;stroke:none;stroke-width:3.80917358;stroke-linecap:round;stroke-linejoin:round;stroke-miterlimit:4;stroke-dasharray:none;stroke-dashoffset:0;stroke-opacity:1"
           transform="matrix(0.76835772,-0.64002063,-0.04605763,0.99893878,0,0)"
           rx="3.9603975"
           ry="5.4113679" />
        <path
           style="opacity:1;fill:#0095ad;fill-opacity:1;stroke:#00ffff;stroke-width:3.27248526;stroke-linecap:round;stroke-linejoin:round;stroke-miterlimit:4;stroke-dasharray:none;stroke-dashoffset:0;stroke-opacity:1"
           d="m -2.3443988,40.925286 a 2.3456856,5.7038766 17.271554 0 0 -1.8714318,5.92104 2.3456856,5.7038766 17.271554 0 0 2.5694944,2.640428 2.3456856,5.7038766 17.271554 0 0 2.48948228,-4.351284 2.3456856,5.7038766 17.271554 0 1 -1.15651434,1.381803 2.3456856,5.7038766 17.271554 0 1 -2.56943824,-2.640392 2.3456856,5.7038766 17.271554 0 1 0.5384077,-2.951595 z"
           id="path3251"
           inkscape:connector-curvature="0" />
        <ellipse
           ry="5.4113679"
           rx="3.9603975"
           transform="matrix(0.76835772,-0.64002063,-0.04605763,0.99893878,0,0)"
           style="opacity:1;fill:#0095ad;fill-opacity:1;stroke:none;stroke-width:3.80917358;stroke-linecap:round;stroke-linejoin:round;stroke-miterlimit:4;stroke-dasharray:none;stroke-dashoffset:0;stroke-opacity:1"
           id="ellipse3253"
           cx="1.3802066"
           cy="44.520821" />
        <g
           id="g266"
           transform="matrix(-0.46788199,-0.00697087,-0.0172388,0.5168187,-215.2073,-110.35426)"
           style="stroke-width:0.95046163">
          <path
             inkscape:connector-curvature="0"
             id="path3257"
             d="m -455.98994,316.61723 a 12.202006,5.0170594 79.096687 0 1 2.57286,13.03268 12.202006,5.0170594 79.096687 0 1 -6.08894,5.00092 12.202006,5.0170594 79.096687 0 1 -4.25929,-9.84294 12.202006,5.0170594 79.096687 0 0 2.13052,3.21292 12.202006,5.0170594 79.096687 0 0 6.0888,-5.00079 12.202006,5.0170594 79.096687 0 0 -0.44395,-6.40279 z"
             style="opacity:1;fill:#0095ad;fill-opacity:1;stroke:#00ffff;stroke-width:6.65323067;stroke-linecap:round;stroke-linejoin:round;stroke-miterlimit:4;stroke-dasharray:none;stroke-dashoffset:0;stroke-opacity:1" />
          <ellipse
             cy="751.37769"
             cx="592.98535"
             id="ellipse3259"
             style="opacity:1;fill:#0095ad;fill-opacity:1;stroke:none;stroke-width:7.74511337;stroke-linecap:round;stroke-linejoin:round;stroke-miterlimit:4;stroke-dasharray:none;stroke-dashoffset:0;stroke-opacity:1"
             transform="matrix(-0.69243855,-0.72147686,-0.0650747,0.9978804,0,0)"
             rx="8.4731579"
             ry="11.575127" />
        </g>
        <path
           inkscape:connector-curvature="0"
           id="path3263"
           d="m -6.2051688,62.336984 a 2.3456856,5.7038766 17.271554 0 0 -1.8714314,5.92104 2.3456856,5.7038766 17.271554 0 0 2.5694891,2.640433 2.3456856,5.7038766 17.271554 0 0 2.4894826,-4.351294 2.3456856,5.7038766 17.271554 0 1 -1.1565148,1.381812 2.3456856,5.7038766 17.271554 0 1 -2.5694382,-2.6404 2.3456856,5.7038766 17.271554 0 1 0.5384127,-2.951591 z"
           style="opacity:1;fill:#0095ad;fill-opacity:1;stroke:#00ffff;stroke-width:3.27248526;stroke-linecap:round;stroke-linejoin:round;stroke-miterlimit:4;stroke-dasharray:none;stroke-dashoffset:0;stroke-opacity:1" />
        <ellipse
           cy="63.463463"
           cx="-2.5090363"
           id="ellipse3265"
           style="opacity:1;fill:#0095ad;fill-opacity:1;stroke:none;stroke-width:3.80917358;stroke-linecap:round;stroke-linejoin:round;stroke-miterlimit:4;stroke-dasharray:none;stroke-dashoffset:0;stroke-opacity:1"
           transform="matrix(0.76835772,-0.64002063,-0.04605763,0.99893878,0,0)"
           rx="3.9603975"
           ry="5.4113679" />
        <path
           style="opacity:1;fill:#0095ad;fill-opacity:1;stroke:#00ffff;stroke-width:3.27248526;stroke-linecap:round;stroke-linejoin:round;stroke-miterlimit:4;stroke-dasharray:none;stroke-dashoffset:0;stroke-opacity:1"
           d="m -4.0817423,60.403118 a 2.3456856,5.7038766 17.271554 0 0 -1.8714315,5.921039 2.3456856,5.7038766 17.271554 0 0 2.5694946,2.640434 2.3456856,5.7038766 17.271554 0 0 2.48948207,-4.351294 2.3456856,5.7038766 17.271554 0 1 -1.15651507,1.381812 2.3456856,5.7038766 17.271554 0 1 -2.5694384,-2.640396 2.3456856,5.7038766 17.271554 0 1 0.5384083,-2.951595 z"
           id="path3269"
           inkscape:connector-curvature="0" />
        <ellipse
           ry="5.4113679"
           rx="3.9603975"
           transform="matrix(0.76835772,-0.64002063,-0.04605763,0.99893878,0,0)"
           style="opacity:1;fill:#0095ad;fill-opacity:1;stroke:none;stroke-width:3.80917358;stroke-linecap:round;stroke-linejoin:round;stroke-miterlimit:4;stroke-dasharray:none;stroke-dashoffset:0;stroke-opacity:1"
           id="ellipse3271"
           cx="0.24425334"
           cy="63.291573" />
        <path
           style="opacity:1;fill:#0095ad;fill-opacity:1;stroke:#00ffff;stroke-width:3.27248526;stroke-linecap:round;stroke-linejoin:round;stroke-miterlimit:4;stroke-dasharray:none;stroke-dashoffset:0;stroke-opacity:1"
           d="m -4.8538763,52.184283 a 2.3456856,5.7038766 17.271554 0 0 -1.8714312,5.921035 2.3456856,5.7038766 17.271554 0 0 2.5694952,2.640434 2.3456856,5.7038766 17.271554 0 0 2.4894811,-4.351289 2.3456856,5.7038766 17.271554 0 1 -1.1565143,1.381807 2.3456856,5.7038766 17.271554 0 1 -2.5694386,-2.640396 2.3456856,5.7038766 17.271554 0 1 0.5384078,-2.951591 z"
           id="path3275"
           inkscape:connector-curvature="0" />
        <ellipse
           ry="5.4113679"
           rx="3.9603975"
           transform="matrix(0.76835772,-0.64002063,-0.04605763,0.99893878,0,0)"
           style="opacity:1;fill:#0095ad;fill-opacity:1;stroke:none;stroke-width:3.80917358;stroke-linecap:round;stroke-linejoin:round;stroke-miterlimit:4;stroke-dasharray:none;stroke-dashoffset:0;stroke-opacity:1"
           id="ellipse3277"
           cx="-1.3136696"
           cy="54.065826" />
        <path
           inkscape:connector-curvature="0"
           id="path3281"
           d="m -0.70356013,48.219919 a 2.3456856,5.7038766 17.271554 0 0 -1.87143167,5.92104 2.3456856,5.7038766 17.271554 0 0 2.56949454,2.640428 2.3456856,5.7038766 17.271554 0 0 2.48948226,-4.351289 2.3456856,5.7038766 17.271554 0 1 -1.1565153,1.381808 2.3456856,5.7038766 17.271554 0 1 -2.5694392,-2.640396 2.3456856,5.7038766 17.271554 0 1 0.53840937,-2.951591 z"
           style="opacity:1;fill:#0095ad;fill-opacity:1;stroke:#00ffff;stroke-width:3.27248526;stroke-linecap:round;stroke-linejoin:round;stroke-miterlimit:4;stroke-dasharray:none;stroke-dashoffset:0;stroke-opacity:1" />
        <ellipse
           cy="53.53775"
           cx="4.0562277"
           id="ellipse3283"
           style="opacity:1;fill:#0095ad;fill-opacity:1;stroke:none;stroke-width:3.80917358;stroke-linecap:round;stroke-linejoin:round;stroke-miterlimit:4;stroke-dasharray:none;stroke-dashoffset:0;stroke-opacity:1"
           transform="matrix(0.76835772,-0.64002063,-0.04605763,0.99893878,0,0)"
           rx="3.9603975"
           ry="5.4113679" />
        <path
           inkscape:connector-curvature="0"
           id="path3287"
           d="m -0.71573913,54.268829 a 2.3456856,5.7038766 17.271554 0 0 -1.87143167,5.92104 2.3456856,5.7038766 17.271554 0 0 2.56949554,2.640433 2.3456856,5.7038766 17.271554 0 0 2.48948126,-4.351294 2.3456856,5.7038766 17.271554 0 1 -1.1565193,1.381803 2.3456856,5.7038766 17.271554 0 1 -2.5694392,-2.640392 2.3456856,5.7038766 17.271554 0 1 0.53841337,-2.95159 z"
           style="opacity:1;fill:#0095ad;fill-opacity:1;stroke:#00ffff;stroke-width:3.27248526;stroke-linecap:round;stroke-linejoin:round;stroke-miterlimit:4;stroke-dasharray:none;stroke-dashoffset:0;stroke-opacity:1" />
        <ellipse
           cy="59.824406"
           cx="4.4172335"
           id="ellipse3289"
           style="opacity:1;fill:#0095ad;fill-opacity:1;stroke:none;stroke-width:3.80917358;stroke-linecap:round;stroke-linejoin:round;stroke-miterlimit:4;stroke-dasharray:none;stroke-dashoffset:0;stroke-opacity:1"
           transform="matrix(0.76835772,-0.64002063,-0.04605763,0.99893878,0,0)"
           rx="3.9603975"
           ry="5.4113679" />
        <g
           id="g262"
           transform="matrix(-0.45924894,0.08743446,0.08743446,0.45924894,-243.318,-45.876537)">
          <path
             inkscape:connector-curvature="0"
             id="path3293"
             d="m -476.79469,294.19456 a 12.200858,5.0175308 72.728446 0 1 4.00308,12.66538 12.200858,5.0175308 72.728446 0 1 -5.49626,5.648 12.200858,5.0175308 72.728446 0 1 -5.32513,-9.3076 12.200858,5.0175308 72.728446 0 0 2.47385,2.95574 12.200858,5.0175308 72.728446 0 0 5.49615,-5.64793 12.200858,5.0175308 72.728446 0 0 -1.15169,-6.31359 z"
             style="opacity:1;fill:#0095ad;fill-opacity:1;stroke:#00ffff;stroke-width:6.99999857;stroke-linecap:round;stroke-linejoin:round;stroke-miterlimit:4;stroke-dasharray:none;stroke-dashoffset:0;stroke-opacity:1" />
          <ellipse
             cy="728.17383"
             cx="667.95673"
             id="ellipse3295"
             style="opacity:1;fill:#0095ad;fill-opacity:1;stroke:none;stroke-width:8.14799976;stroke-linecap:round;stroke-linejoin:round;stroke-miterlimit:4;stroke-dasharray:none;stroke-dashoffset:0;stroke-opacity:1"
             transform="matrix(-0.76835772,-0.64002064,0.04605763,0.99893878,0,0)"
             rx="8.4714746"
             ry="11.575169" />
        </g>
        <path
           style="opacity:1;fill:#0095ad;fill-opacity:1;stroke:#00ffff;stroke-width:3.27248526;stroke-linecap:round;stroke-linejoin:round;stroke-miterlimit:4;stroke-dasharray:none;stroke-dashoffset:0;stroke-opacity:1"
           d="M 0.26162141,35.391227 A 2.3456856,5.7038766 17.271554 0 0 -1.6098102,41.312267 2.3456856,5.7038766 17.271554 0 0 0.95968408,43.952696 2.3456856,5.7038766 17.271554 0 0 3.4491664,39.601411 2.3456856,5.7038766 17.271554 0 1 2.292652,40.983214 2.3456856,5.7038766 17.271554 0 1 -0.27678626,38.342823 2.3456856,5.7038766 17.271554 0 1 0.26162141,35.391227 Z"
           id="path3299"
           inkscape:connector-curvature="0" />
        <ellipse
           ry="5.4113679"
           rx="3.9603975"
           transform="matrix(0.76835772,-0.64002063,-0.04605763,0.99893878,0,0)"
           style="opacity:1;fill:#0095ad;fill-opacity:1;stroke:none;stroke-width:3.80917358;stroke-linecap:round;stroke-linejoin:round;stroke-miterlimit:4;stroke-dasharray:none;stroke-dashoffset:0;stroke-opacity:1"
           id="ellipse3301"
           cx="4.5620174"
           cy="41.019428" />
        <path
           inkscape:connector-curvature="0"
           id="path3305"
           d="m 2.8676317,38.260622 a 2.3456856,5.7038766 17.271554 0 0 -1.87143162,5.92104 2.3456856,5.7038766 17.271554 0 0 2.56949532,2.640429 2.3456856,5.7038766 17.271554 0 0 2.489482,-4.351285 2.3456856,5.7038766 17.271554 0 1 -1.156515,1.381803 A 2.3456856,5.7038766 17.271554 0 1 2.32922,41.212218 2.3456856,5.7038766 17.271554 0 1 2.8676317,38.260622 Z"
           style="opacity:1;fill:#0095ad;fill-opacity:1;stroke:#00ffff;stroke-width:3.27248526;stroke-linecap:round;stroke-linejoin:round;stroke-miterlimit:4;stroke-dasharray:none;stroke-dashoffset:0;stroke-opacity:1" />
        <ellipse
           cy="46.266438"
           cx="8.2681894"
           id="ellipse3307"
           style="opacity:1;fill:#0095ad;fill-opacity:1;stroke:none;stroke-width:3.80917358;stroke-linecap:round;stroke-linejoin:round;stroke-miterlimit:4;stroke-dasharray:none;stroke-dashoffset:0;stroke-opacity:1"
           transform="matrix(0.76835772,-0.64002063,-0.04605763,0.99893878,0,0)"
           rx="3.9603975"
           ry="5.4113679" />
        <g
           id="g270"
           transform="matrix(-0.46029149,-0.08176868,-0.08176868,0.46029149,-195.64297,-129.1465)">
          <path
             style="opacity:1;fill:#0095ad;fill-opacity:1;stroke:#00ffff;stroke-width:6.99999857;stroke-linecap:round;stroke-linejoin:round;stroke-miterlimit:4;stroke-dasharray:none;stroke-dashoffset:0;stroke-opacity:1"
             d="m -479.15593,261.10184 a 12.200858,5.0175308 72.728446 0 1 4.00308,12.66538 12.200858,5.0175308 72.728446 0 1 -5.49627,5.648 12.200858,5.0175308 72.728446 0 1 -5.32512,-9.3076 12.200858,5.0175308 72.728446 0 0 2.47384,2.95574 12.200858,5.0175308 72.728446 0 0 5.49615,-5.64792 12.200858,5.0175308 72.728446 0 0 -1.15168,-6.3136 z"
             id="path3311"
             inkscape:connector-curvature="0" />
          <ellipse
             ry="11.575169"
             rx="8.4714746"
             transform="matrix(-0.76835772,-0.64002064,0.04605763,0.99893878,0,0)"
             style="opacity:1;fill:#0095ad;fill-opacity:1;stroke:none;stroke-width:8.14799976;stroke-linecap:round;stroke-linejoin:round;stroke-miterlimit:4;stroke-dasharray:none;stroke-dashoffset:0;stroke-opacity:1"
             id="ellipse3313"
             cx="669.08752"
             cy="695.77039" />
        </g>
        <path
           inkscape:connector-curvature="0"
           id="path3359"
           d="M 2.7434837,41.996876 A 2.3453449,5.7047059 4.869975 0 0 2.188157,48.182669 2.3453449,5.7047059 4.869975 0 0 5.2647604,50.207131 2.3453449,5.7047059 4.869975 0 0 6.7609351,45.420999 2.3453449,5.7047059 4.869975 0 1 5.9284334,47.01981 2.3453449,5.7047059 4.869975 0 1 2.8518957,44.995384 2.3453449,5.7047059 4.869975 0 1 2.7434837,41.996876 Z"
           style="opacity:1;fill:#0095ad;fill-opacity:1;stroke:#00ffff;stroke-width:3.27248573;stroke-linecap:round;stroke-linejoin:round;stroke-miterlimit:4;stroke-dasharray:none;stroke-dashoffset:0;stroke-opacity:1" />
        <ellipse
           cy="41.756618"
           cx="-3.9930539"
           id="ellipse3361"
           style="opacity:1;fill:#0095ad;fill-opacity:1;stroke:none;stroke-width:3.80981588;stroke-linecap:round;stroke-linejoin:round;stroke-miterlimit:4;stroke-dasharray:none;stroke-dashoffset:0;stroke-opacity:1"
           transform="matrix(0.6125906,-0.79040038,0.16966954,0.98550101,0,0)"
           rx="3.9619229"
           ry="5.411109" />
        <path
           style="opacity:1;fill:#0095ad;fill-opacity:1;stroke:#00ffff;stroke-width:3.27248573;stroke-linecap:round;stroke-linejoin:round;stroke-miterlimit:4;stroke-dasharray:none;stroke-dashoffset:0;stroke-opacity:1"
           d="M 3.7110405,35.052721 A 5.7047714,2.3453179 88.363895 0 0 3.8607091,41.261684 5.7047714,2.3453179 88.363895 0 0 7.1469478,42.922928 5.7047714,2.3453179 88.363895 0 0 8.0907462,37.997524 5.7047714,2.3453179 88.363895 0 1 7.4449215,39.680722 5.7047714,2.3453179 88.363895 0 1 4.1587531,38.01951 5.7047714,2.3453179 88.363895 0 1 3.7110405,35.052721 Z"
           id="path3365"
           inkscape:connector-curvature="0" />
        <ellipse
           ry="5.8541017"
           rx="4.3005333"
           transform="matrix(0.52490008,-0.85116386,0.28444465,0.95869246,0,0)"
           style="opacity:1;fill:#0095ad;fill-opacity:1;stroke:none;stroke-width:3.79056954;stroke-linecap:round;stroke-linejoin:round;stroke-miterlimit:4;stroke-dasharray:none;stroke-dashoffset:0;stroke-opacity:1"
           id="ellipse3367"
           cx="-6.1266208"
           cy="32.77169" />
        <g
           id="g7900"
           style="fill:#ffffff;stroke:#ffffff;stroke-width:1;stroke-miterlimit:4;stroke-dasharray:none"
           transform="matrix(0.46749799,0,0,0.46749799,256.48114,-90.80852)">
          <g
             transform="matrix(-0.98394623,-0.17846515,-0.17846515,0.98394623,-542.81505,12.827862)"
             id="g7874"
             style="fill:#ffffff;stroke:#ffffff;stroke-width:1;stroke-miterlimit:4;stroke-dasharray:none">
            <g
               transform="matrix(0.72949717,0,0,0.72949717,-291.29412,691.91068)"
               id="g7854"
               style="fill:#ffffff;stroke:#ffffff;stroke-width:1.37080729;stroke-miterlimit:4;stroke-dasharray:none">
              <path
                 sodipodi:nodetypes="cscccscccscssscccssssssscsccccccscsccccccccccscscccscssccccccsscssscc"
                 inkscape:connector-curvature="0"
                 id="path7852"
                 d="m 218.90586,-498.18 c -0.33592,2.90026 3.22153,6.17121 8.02217,7.37609 5.11906,1.2848 8.90434,8.51967 6.65573,12.72124 -1.15073,2.15015 -4.18698,2.29084 -5.86276,0.27165 -7.72834,-7.1361 -16.32791,-12.40849 -24.69628,-11.39453 -9.36802,1.34657 -13.99213,3.97417 -20.31286,11.54259 -3.89701,4.66627 -4.87515,5.32013 -7.29971,4.87966 -1.53984,-0.27974 -2.58352,-0.1588 -2.31928,0.26874 0.74772,1.20984 -3.63106,1.2299 -5.08492,0.0233 -0.71285,-0.59161 -1.29609,-2.37056 -1.29609,-3.95321 0,-3.00932 -0.77443,-3.32752 -7.1128,-2.92255 -2.19456,0.14022 -2.71605,-0.34925 -3.25775,-3.05775 -0.79567,-3.97834 0.71675,-6.56221 7.95833,-13.59634 7.67419,-7.45434 13.27431,-7.98632 33.30818,-3.16413 8.91861,2.14673 9.12712,2.1523 11.17531,0.29871 l 2.08713,-1.88882 c -0.79562,-2.69999 6.73564,0.0987 8.0356,2.59535 z m -48.694,23.85797 c -0.33992,-0.55 -0.14148,-1 0.44098,-1 0.58246,0 1.05902,-0.45 1.05902,-1 0,-0.55 -0.9,-1 -2,-1 -1.1,0 -2,0.1882 -2,0.41821 0,1.34117 1.35497,3.58179 2.16601,3.58179 0.52361,0 0.67391,-0.45 0.33399,-1 z m 10.88364,-4.00288 c 1.989,-2.20159 3.61636,-4.34645 3.61636,-4.76637 0,-2.00559 10.82749,-7.07008 16.5,-7.71776 3.3,-0.3768 7.43923,-1.05366 9.19829,-1.50415 1.75907,-0.45049 3.33407,-0.51614 3.5,-0.14588 1.09562,4.34598 10.82395,7.99129 10.82395,7.99129 0.0122,0.35516 0.95411,1.77075 2.09308,3.14575 1.35606,1.63707 1.87697,1.89595 1.50915,0.75 -0.76928,-2.39673 0.27357,-4.75 2.10496,-4.75 1.23369,0 1.284,-0.27889 0.27057,-1.5 -0.68469,-0.825 -1.68428,-1.5 -2.22132,-1.5 -1.77647,0 -8.2576,-3.38917 -9.48138,-4.9581 -0.66149,-0.84805 -1.47875,-2.75214 -1.81615,-4.23131 -0.85158,-3.73342 -3.47535,-3.91876 -6.7463,-0.47657 -2.79838,2.94489 -6.57035,1.72576 -10.14889,1.06607 -6.26802,0.74992 -9.28128,1.03454 -9.28128,1.03454 -10.48036,-0.65625 -12.22401,0.048 -17.16672,6.93323 l -3.49448,4.86786 c -1.02884,3.32614 0.47816,0.10562 -1.02884,3.32614 -0.5169,1.34701 -0.16688,1.5857 1.77966,1.2136 1.73822,-0.33229 2.27735,-0.0834 1.90742,0.88066 -0.82246,2.14329 0.46963,4.34388 2.55053,4.34388 1.05327,0 3.54239,-1.8013 5.53139,-4.00288 z m 50.19716,-4.74965 c -1.15374,-1.15374 -1.74564,0.65318 -0.95886,2.92717 l 0.80455,2.32536 0.36756,-2.33586 c 0.20215,-1.28473 0.10619,-2.59723 -0.21325,-2.91667 z m -70.75748,-0.58034 c 0.19138,-0.98676 -0.31876,-1.66713 -1.25,-1.66713 -0.92763,0 -1.57332,0.855 -1.57332,2.08333 0,2.43705 2.33677,2.09257 2.82332,-0.4162 z m 9.6389,-2.41713 c 4.59628,-8.74722 6.60533,-10.41561 14.19526,-11.78826 4.81236,-0.16925 2.97082,-1.21575 -1.58097,-2.55696 -2.62126,-0.78535 -4.78354,-0.79149 -7.64235,-0.0217 -4.37847,1.179 -10.79003,5.42771 -9.75407,6.46367 0.35929,0.35928 0.0674,0.65324 -0.64875,0.65324 -0.7161,0 -2.39389,1.17817 -3.72842,2.61815 l -2.42641,2.61814 2.06174,1.92081 c 1.13396,1.05645 2.06175,2.57828 2.06175,3.38186 0,0.88913 0.972,1.46104 2.48315,1.46104 1.94539,0 3.02369,-1.02869 4.97907,-4.75 z"
                 style="fill:#ffffff;stroke:#ffffff;stroke-width:1.37080729;stroke-miterlimit:4;stroke-dasharray:none" />
            </g>
            <path
               style="fill:#ffffff;fill-opacity:1;stroke:#ffffff;stroke-width:1;stroke-linecap:round;stroke-miterlimit:4;stroke-dasharray:none"
               d="m -171.98673,340.0902 c -0.3528,-0.35279 -0.64145,-0.88085 -0.64145,-1.17345 0,-0.2926 -0.61493,-1.17388 -1.36651,-1.95834 l -1.36652,-1.42634 1.76742,-1.44523 c 0.97208,-0.79487 2.6907,-2.29386 3.81915,-3.33106 3.20114,-2.94232 7.94682,-4.48738 11.73598,-4.14379 3.06588,0.278 6.14562,1.91977 3.69964,1.91977 -1.80151,0 -7.73891,1.45477 -9.08358,2.71805 -0.68661,0.64503 -1.99286,2.50111 -2.90279,4.12462 -2.75423,4.91413 -4.23202,6.14511 -5.66134,4.71577 z"
               id="path7856"
               inkscape:connector-curvature="0"
               sodipodi:nodetypes="cscccccscsc" />
            <g
               id="g7860"
               transform="translate(-7.5595234,-4.063244)"
               style="fill:#ffffff;stroke:#ffffff;stroke-width:1;stroke-miterlimit:4;stroke-dasharray:none">
              <path
                 transform="matrix(0.26458333,0,0,0.26458333,-26.104076,-55.681719)"
                 inkscape:connector-curvature="0"
                 id="path7858"
                 d="m -535.8243,1518.8625 c -1.65482,-1.8873 -3.41112,-5.6387 -3.41112,-7.286 0,-1.3075 0.44273,-1.464 4.14286,-1.464 4.09718,0 5.85714,0.8053 5.85714,2.68 0,0.5312 -0.99233,1.3117 -2.20517,1.7345 -2.02521,0.706 -2.16829,0.9652 -1.75335,3.1771 0.51445,2.7423 -0.75244,3.3002 -2.63036,1.1584 z"
                 style="fill:#ffffff;fill-opacity:1;stroke:#ffffff;stroke-width:3.77952766;stroke-linecap:round;stroke-miterlimit:4;stroke-dasharray:none" />
            </g>
            <path
               style="fill:#ffffff;fill-opacity:1;stroke:#ffffff;stroke-width:3.77952766;stroke-linecap:round;stroke-miterlimit:4;stroke-dasharray:none"
               d="m -366.59011,1502.5656 c -1.9678,-7.0069 -1.36345,-11.0782 1.31455,-8.8557 1.10561,0.9176 1.35342,7.9822 0.39996,11.4026 -0.43039,1.544 -0.66249,1.1992 -1.71451,-2.5469 z"
               id="path7862"
               inkscape:connector-curvature="0"
               transform="matrix(0.26458333,0,0,0.26458333,-26.104076,-55.681719)" />
            <g
               transform="translate(-7.5595234,-5.6507441)"
               id="g7866"
               style="fill:#ffffff;stroke:#ffffff;stroke-width:1;stroke-miterlimit:4;stroke-dasharray:none">
              <path
                 style="fill:#ffffff;fill-opacity:1;stroke:#ffffff;stroke-width:3.77952766;stroke-linecap:round;stroke-miterlimit:4;stroke-dasharray:none"
                 d="m -535.8243,1518.8625 c -1.65482,-1.8873 -3.41112,-5.6387 -3.41112,-7.286 0,-1.3075 0.44273,-1.464 4.14286,-1.464 4.09718,0 5.85714,0.8053 5.85714,2.68 0,0.5312 -0.99233,1.3117 -2.20517,1.7345 -2.02521,0.706 -2.16829,0.9652 -1.75335,3.1771 0.51445,2.7423 -0.75244,3.3002 -2.63036,1.1584 z"
                 id="path7864"
                 inkscape:connector-curvature="0"
                 transform="matrix(0.26458333,0,0,0.26458333,-26.104076,-55.681719)" />
            </g>
            <g
               id="g7870"
               transform="translate(0.37797701,0.17008946)"
               style="fill:#ffffff;stroke:#ffffff;stroke-width:1;stroke-miterlimit:4;stroke-dasharray:none">
              <path
                 transform="matrix(0.26458333,0,0,0.26458333,-26.104076,-55.681719)"
                 inkscape:connector-curvature="0"
                 id="path7868"
                 d="m -535.8243,1518.8625 c -1.65482,-1.8873 -3.41112,-5.6387 -3.41112,-7.286 0,-1.3075 0.44273,-1.464 4.14286,-1.464 4.09718,0 5.85714,0.8053 5.85714,2.68 0,0.5312 -0.99233,1.3117 -2.20517,1.7345 -2.02521,0.706 -2.16829,0.9652 -1.75335,3.1771 0.51445,2.7423 -0.75244,3.3002 -2.63036,1.1584 z"
                 style="fill:#ffffff;fill-opacity:1;stroke:#ffffff;stroke-width:3.77952766;stroke-linecap:round;stroke-miterlimit:4;stroke-dasharray:none" />
            </g>
            <path
               style="fill:#ffffff;fill-opacity:1;stroke:#ffffff;stroke-width:3.77952766;stroke-linecap:round;stroke-miterlimit:4;stroke-dasharray:none;stroke-opacity:1"
               d="m -520.5474,1517.1304 c -2.55192,-0.9091 -3.21346,-1.6413 -3.42353,-3.789 -0.10709,-1.0948 -0.55985,-2.5603 -1.04761,-3.3908 -0.85046,-1.4481 -0.85316,-1.4833 -0.2709,-3.53 0.99797,-3.5082 0.1384,-4.0094 -5.43562,-3.1699 -5.34929,0.8056 -6.05871,0 -3.9399,-4.4798 0.59461,-1.2569 1.14881,-2.9444 1.23156,-3.75 0.28649,-2.7891 1.20418,-4.3951 7.55593,-13.224 7.3216,-10.1769 11.62421,-15.395 14.63098,-17.744 6.68357,-5.2217 11.63086,-6.2892 27.41749,-5.9161 9.84655,0.2327 13.37962,-0.019 31.11809,-2.2158 2.0653,-0.2557 3.26504,-0.1613 6.89978,0.543 10.14963,1.9668 15.12777,1.7879 19.97331,-0.7179 0.58379,-0.3019 2.59989,-1.9628 4.48022,-3.6908 7.06993,-6.4976 11.3831,-7.7436 14.73071,-4.2555 1.5067,1.5699 1.96819,2.5975 3.54767,7.8992 1.15028,3.861 3.30303,8.4325 4.8331,10.2633 3.38957,4.0559 19.38099,12.3811 25.63462,13.3456 2.60046,0.401 6.26517,3.3758 7.82182,6.3492 0.67564,1.2905 0.25622,1.6357 -1.997,1.6436 -4.9578,0.017 -7.98769,6.0074 -6.30014,12.4556 0.32698,1.2495 0.48999,2.3745 0.36225,2.5 -0.56259,0.5532 -7.68602,-8.1606 -9.18345,-11.2336 -0.52803,-1.0837 -1.04765,-1.5779 -2.00765,-1.9094 -0.71238,-0.2461 -3.86667,-1.705 -7.00953,-3.2422 -10.76003,-5.2626 -17.89524,-10.8347 -20.42272,-15.9487 -0.9599,-1.9422 -1.52905,-2.6892 -2.17198,-2.8505 -1.24558,-0.3127 -5.2509,0.1182 -8.7155,0.9374 -4.40483,1.0416 -12.34275,2.3872 -21.04684,3.5679 -10.53928,1.4296 -15.99389,2.8656 -25.96079,6.8343 -8.66498,3.4504 -17.79567,8.3484 -21.25219,11.4004 -1.15128,1.0166 -2.11222,2.3467 -2.93085,4.0569 -2.60722,5.4467 -13.2939,17.19 -19.10627,20.9952 -2.9519,1.9326 -4.86654,2.8156 -6.03544,2.7836 -0.31443,-0.01 -1.20527,-0.2414 -1.97962,-0.5172 z"
               id="path7872"
               inkscape:connector-curvature="0"
               transform="matrix(0.26458333,0,0,0.26458333,-26.104076,-55.681719)" />
          </g>
          <g
             id="g7898"
             transform="matrix(-0.97485014,-0.22286142,-0.22286142,0.97485014,-564.89045,9.6308926)"
             style="fill:#ffffff;stroke:#ffffff;stroke-width:1;stroke-miterlimit:4;stroke-dasharray:none">
            <g
               style="fill:#ffffff;stroke:#ffffff;stroke-width:1.37080717;stroke-miterlimit:4;stroke-dasharray:none"
               id="g7878"
               transform="matrix(0.72949717,0,0,0.72949717,-291.29412,691.91068)">
              <path
                 style="fill:#ffffff;stroke:#ffffff;stroke-width:1.37080717;stroke-miterlimit:4;stroke-dasharray:none"
                 d="m 218.90586,-498.18 c -0.33592,2.90026 3.22153,6.17121 8.02217,7.37609 5.11906,1.2848 8.90434,8.51967 6.65573,12.72124 -1.15073,2.15015 -4.18698,2.29084 -5.86276,0.27165 -7.72834,-7.1361 -16.32791,-12.40849 -24.69628,-11.39453 -9.36802,1.34657 -13.99213,3.97417 -20.31286,11.54259 -3.89701,4.66627 -4.87515,5.32013 -7.29971,4.87966 -1.53984,-0.27974 -2.58352,-0.1588 -2.31928,0.26874 0.74772,1.20984 -3.63106,1.2299 -5.08492,0.0233 -0.71285,-0.59161 -1.29609,-2.37056 -1.29609,-3.95321 0,-3.00932 -0.77443,-3.32752 -7.1128,-2.92255 -2.19456,0.14022 -2.71605,-0.34925 -3.25775,-3.05775 -0.79567,-3.97834 0.71675,-6.56221 7.95833,-13.59634 7.67419,-7.45434 13.27431,-7.98632 33.30818,-3.16413 8.91861,2.14673 9.12712,2.1523 11.17531,0.29871 l 2.08713,-1.88882 c -0.79562,-2.69999 6.73564,0.0987 8.0356,2.59535 z m -48.694,23.85797 c -0.33992,-0.55 -0.14148,-1 0.44098,-1 0.58246,0 1.05902,-0.45 1.05902,-1 0,-0.55 -0.9,-1 -2,-1 -1.1,0 -2,0.1882 -2,0.41821 0,1.34117 1.35497,3.58179 2.16601,3.58179 0.52361,0 0.67391,-0.45 0.33399,-1 z m 10.88364,-4.00288 c 1.989,-2.20159 3.61636,-4.34645 3.61636,-4.76637 0,-2.00559 10.82749,-7.07008 16.5,-7.71776 3.3,-0.3768 7.43923,-1.05366 9.19829,-1.50415 1.75907,-0.45049 3.33407,-0.51614 3.5,-0.14588 1.09562,4.34598 10.82395,7.99129 10.82395,7.99129 0.0122,0.35516 0.95411,1.77075 2.09308,3.14575 1.35606,1.63707 1.87697,1.89595 1.50915,0.75 -0.76928,-2.39673 0.27357,-4.75 2.10496,-4.75 1.23369,0 1.284,-0.27889 0.27057,-1.5 -0.68469,-0.825 -1.68428,-1.5 -2.22132,-1.5 -1.77647,0 -8.2576,-3.38917 -9.48138,-4.9581 -0.66149,-0.84805 -1.47875,-2.75214 -1.81615,-4.23131 -0.85158,-3.73342 -3.47535,-3.91876 -6.7463,-0.47657 -2.79838,2.94489 -6.57035,1.72576 -10.14889,1.06607 -6.26802,0.74992 -9.28128,1.03454 -9.28128,1.03454 -10.48036,-0.65625 -12.22401,0.048 -17.16672,6.93323 l -3.49448,4.86786 c -1.02884,3.32614 0.47816,0.10562 -1.02884,3.32614 -0.5169,1.34701 -0.16688,1.5857 1.77966,1.2136 1.73822,-0.33229 2.27735,-0.0834 1.90742,0.88066 -0.82246,2.14329 0.46963,4.34388 2.55053,4.34388 1.05327,0 3.54239,-1.8013 5.53139,-4.00288 z m 50.19716,-4.74965 c -1.15374,-1.15374 -1.74564,0.65318 -0.95886,2.92717 l 0.80455,2.32536 0.36756,-2.33586 c 0.20215,-1.28473 0.10619,-2.59723 -0.21325,-2.91667 z m -70.75748,-0.58034 c 0.19138,-0.98676 -0.31876,-1.66713 -1.25,-1.66713 -0.92763,0 -1.57332,0.855 -1.57332,2.08333 0,2.43705 2.33677,2.09257 2.82332,-0.4162 z m 9.6389,-2.41713 c 4.59628,-8.74722 6.60533,-10.41561 14.19526,-11.78826 4.81236,-0.16925 2.97082,-1.21575 -1.58097,-2.55696 -2.62126,-0.78535 -4.78354,-0.79149 -7.64235,-0.0217 -4.37847,1.179 -10.79003,5.42771 -9.75407,6.46367 0.35929,0.35928 0.0674,0.65324 -0.64875,0.65324 -0.7161,0 -2.39389,1.17817 -3.72842,2.61815 l -2.42641,2.61814 2.06174,1.92081 c 1.13396,1.05645 2.06175,2.57828 2.06175,3.38186 0,0.88913 0.972,1.46104 2.48315,1.46104 1.94539,0 3.02369,-1.02869 4.97907,-4.75 z"
                 id="path7876"
                 inkscape:connector-curvature="0"
                 sodipodi:nodetypes="cscccscccscssscccssssssscsccccccscsccccccccccscscccscssccccccsscssscc" />
            </g>
            <path
               sodipodi:nodetypes="cscccccscsc"
               inkscape:connector-curvature="0"
               id="path7880"
               d="m -171.98673,340.0902 c -0.3528,-0.35279 -0.64145,-0.88085 -0.64145,-1.17345 0,-0.2926 -0.61493,-1.17388 -1.36651,-1.95834 l -1.36652,-1.42634 1.76742,-1.44523 c 0.97208,-0.79487 2.6907,-2.29386 3.81915,-3.33106 3.20114,-2.94232 7.94682,-4.48738 11.73598,-4.14379 3.06588,0.278 6.14562,1.91977 3.69964,1.91977 -1.80151,0 -7.73891,1.45477 -9.08358,2.71805 -0.68661,0.64503 -1.99286,2.50111 -2.90279,4.12462 -2.75423,4.91413 -4.23202,6.14511 -5.66134,4.71577 z"
               style="fill:#ffffff;fill-opacity:1;stroke:#ffffff;stroke-width:1;stroke-linecap:round;stroke-miterlimit:4;stroke-dasharray:none" />
            <g
               transform="translate(-7.5595234,-4.063244)"
               id="g7884"
               style="fill:#ffffff;stroke:#ffffff;stroke-width:1;stroke-miterlimit:4;stroke-dasharray:none">
              <path
                 style="fill:#ffffff;fill-opacity:1;stroke:#ffffff;stroke-width:3.77952766;stroke-linecap:round;stroke-miterlimit:4;stroke-dasharray:none"
                 d="m -535.8243,1518.8625 c -1.65482,-1.8873 -3.41112,-5.6387 -3.41112,-7.286 0,-1.3075 0.44273,-1.464 4.14286,-1.464 4.09718,0 5.85714,0.8053 5.85714,2.68 0,0.5312 -0.99233,1.3117 -2.20517,1.7345 -2.02521,0.706 -2.16829,0.9652 -1.75335,3.1771 0.51445,2.7423 -0.75244,3.3002 -2.63036,1.1584 z"
                 id="path7882"
                 inkscape:connector-curvature="0"
                 transform="matrix(0.26458333,0,0,0.26458333,-26.104076,-55.681719)" />
            </g>
            <path
               transform="matrix(0.26458333,0,0,0.26458333,-26.104076,-55.681719)"
               inkscape:connector-curvature="0"
               id="path7886"
               d="m -366.59011,1502.5656 c -1.9678,-7.0069 -1.36345,-11.0782 1.31455,-8.8557 1.10561,0.9176 1.35342,7.9822 0.39996,11.4026 -0.43039,1.544 -0.66249,1.1992 -1.71451,-2.5469 z"
               style="fill:#ffffff;fill-opacity:1;stroke:#ffffff;stroke-width:3.77952766;stroke-linecap:round;stroke-miterlimit:4;stroke-dasharray:none" />
            <g
               id="g7890"
               transform="translate(-7.5595234,-5.6507441)"
               style="fill:#ffffff;stroke:#ffffff;stroke-width:1;stroke-miterlimit:4;stroke-dasharray:none">
              <path
                 transform="matrix(0.26458333,0,0,0.26458333,-26.104076,-55.681719)"
                 inkscape:connector-curvature="0"
                 id="path7888"
                 d="m -535.8243,1518.8625 c -1.65482,-1.8873 -3.41112,-5.6387 -3.41112,-7.286 0,-1.3075 0.44273,-1.464 4.14286,-1.464 4.09718,0 5.85714,0.8053 5.85714,2.68 0,0.5312 -0.99233,1.3117 -2.20517,1.7345 -2.02521,0.706 -2.16829,0.9652 -1.75335,3.1771 0.51445,2.7423 -0.75244,3.3002 -2.63036,1.1584 z"
                 style="fill:#ffffff;fill-opacity:1;stroke:#ffffff;stroke-width:3.77952766;stroke-linecap:round;stroke-miterlimit:4;stroke-dasharray:none" />
            </g>
            <g
               transform="translate(0.37797701,0.17008946)"
               id="g7894"
               style="fill:#ffffff;stroke:#ffffff;stroke-width:1;stroke-miterlimit:4;stroke-dasharray:none">
              <path
                 style="fill:#ffffff;fill-opacity:1;stroke:#ffffff;stroke-width:3.77952766;stroke-linecap:round;stroke-miterlimit:4;stroke-dasharray:none"
                 d="m -535.8243,1518.8625 c -1.65482,-1.8873 -3.41112,-5.6387 -3.41112,-7.286 0,-1.3075 0.44273,-1.464 4.14286,-1.464 4.09718,0 5.85714,0.8053 5.85714,2.68 0,0.5312 -0.99233,1.3117 -2.20517,1.7345 -2.02521,0.706 -2.16829,0.9652 -1.75335,3.1771 0.51445,2.7423 -0.75244,3.3002 -2.63036,1.1584 z"
                 id="path7892"
                 inkscape:connector-curvature="0"
                 transform="matrix(0.26458333,0,0,0.26458333,-26.104076,-55.681719)" />
            </g>
            <path
               transform="matrix(0.26458333,0,0,0.26458333,-26.104076,-55.681719)"
               inkscape:connector-curvature="0"
               id="path7896"
               d="m -520.5474,1517.1304 c -2.55192,-0.9091 -3.21346,-1.6413 -3.42353,-3.789 -0.10709,-1.0948 -0.55985,-2.5603 -1.04761,-3.3908 -0.85046,-1.4481 -0.85316,-1.4833 -0.2709,-3.53 0.99797,-3.5082 0.1384,-4.0094 -5.43562,-3.1699 -5.34929,0.8056 -6.05871,0 -3.9399,-4.4798 0.59461,-1.2569 1.14881,-2.9444 1.23156,-3.75 0.28649,-2.7891 1.20418,-4.3951 7.55593,-13.224 7.3216,-10.1769 11.62421,-15.395 14.63098,-17.744 6.68357,-5.2217 11.63086,-6.2892 27.41749,-5.9161 9.84655,0.2327 13.37962,-0.019 31.11809,-2.2158 2.0653,-0.2557 3.26504,-0.1613 6.89978,0.543 10.14963,1.9668 15.12777,1.7879 19.97331,-0.7179 0.58379,-0.3019 2.59989,-1.9628 4.48022,-3.6908 7.06993,-6.4976 11.3831,-7.7436 14.73071,-4.2555 1.5067,1.5699 1.96819,2.5975 3.54767,7.8992 1.15028,3.861 3.30303,8.4325 4.8331,10.2633 3.38957,4.0559 19.38099,12.3811 25.63462,13.3456 2.60046,0.401 6.26517,3.3758 7.82182,6.3492 0.67564,1.2905 0.25622,1.6357 -1.997,1.6436 -4.9578,0.017 -7.98769,6.0074 -6.30014,12.4556 0.32698,1.2495 0.48999,2.3745 0.36225,2.5 -0.56259,0.5532 -7.68602,-8.1606 -9.18345,-11.2336 -0.52803,-1.0837 -1.04765,-1.5779 -2.00765,-1.9094 -0.71238,-0.2461 -3.86667,-1.705 -7.00953,-3.2422 -10.76003,-5.2626 -17.89524,-10.8347 -20.42272,-15.9487 -0.9599,-1.9422 -1.52905,-2.6892 -2.17198,-2.8505 -1.24558,-0.3127 -5.2509,0.1182 -8.7155,0.9374 -4.40483,1.0416 -12.34275,2.3872 -21.04684,3.5679 -10.53928,1.4296 -15.99389,2.8656 -25.96079,6.8343 -8.66498,3.4504 -17.79567,8.3484 -21.25219,11.4004 -1.15128,1.0166 -2.11222,2.3467 -2.93085,4.0569 -2.60722,5.4467 -13.2939,17.19 -19.10627,20.9952 -2.9519,1.9326 -4.86654,2.8156 -6.03544,2.7836 -0.31443,-0.01 -1.20527,-0.2414 -1.97962,-0.5172 z"
               style="fill:#ffffff;fill-opacity:1;stroke:#ffffff;stroke-width:3.77952766;stroke-linecap:round;stroke-miterlimit:4;stroke-dasharray:none;stroke-opacity:1" />
          </g>
        </g>
        <g
           id="g7850"
           transform="matrix(0.46749799,0,0,0.46749799,256.49306,-91.513318)">
          <g
             id="g4725"
             transform="matrix(-0.98394623,-0.17846515,-0.17846515,0.98394623,-542.81505,12.827862)">
            <g
               style="stroke-width:0.36269274"
               id="g4705"
               transform="matrix(0.72949717,0,0,0.72949717,-291.29412,691.91068)">
              <path
                 style="fill:#000000;stroke-width:0.36269274"
                 d="m 218.90586,-498.18 c -0.33592,2.90026 3.22153,6.17121 8.02217,7.37609 5.11906,1.2848 8.90434,8.51967 6.65573,12.72124 -1.15073,2.15015 -4.18698,2.29084 -5.86276,0.27165 -7.72834,-7.1361 -16.32791,-12.40849 -24.69628,-11.39453 -9.36802,1.34657 -13.99213,3.97417 -20.31286,11.54259 -3.89701,4.66627 -4.87515,5.32013 -7.29971,4.87966 -1.53984,-0.27974 -2.58352,-0.1588 -2.31928,0.26874 0.74772,1.20984 -3.63106,1.2299 -5.08492,0.0233 -0.71285,-0.59161 -1.29609,-2.37056 -1.29609,-3.95321 0,-3.00932 -0.77443,-3.32752 -7.1128,-2.92255 -2.19456,0.14022 -2.71605,-0.34925 -3.25775,-3.05775 -0.79567,-3.97834 0.71675,-6.56221 7.95833,-13.59634 7.67419,-7.45434 13.27431,-7.98632 33.30818,-3.16413 8.91861,2.14673 9.12712,2.1523 11.17531,0.29871 l 2.08713,-1.88882 c -0.79562,-2.69999 6.73564,0.0987 8.0356,2.59535 z m -48.694,23.85797 c -0.33992,-0.55 -0.14148,-1 0.44098,-1 0.58246,0 1.05902,-0.45 1.05902,-1 0,-0.55 -0.9,-1 -2,-1 -1.1,0 -2,0.1882 -2,0.41821 0,1.34117 1.35497,3.58179 2.16601,3.58179 0.52361,0 0.67391,-0.45 0.33399,-1 z m 10.88364,-4.00288 c 1.989,-2.20159 3.61636,-4.34645 3.61636,-4.76637 0,-2.00559 10.82749,-7.07008 16.5,-7.71776 3.3,-0.3768 7.43923,-1.05366 9.19829,-1.50415 1.75907,-0.45049 3.33407,-0.51614 3.5,-0.14588 1.09562,4.34598 10.82395,7.99129 10.82395,7.99129 0.0122,0.35516 0.95411,1.77075 2.09308,3.14575 1.35606,1.63707 1.87697,1.89595 1.50915,0.75 -0.76928,-2.39673 0.27357,-4.75 2.10496,-4.75 1.23369,0 1.284,-0.27889 0.27057,-1.5 -0.68469,-0.825 -1.68428,-1.5 -2.22132,-1.5 -1.77647,0 -8.2576,-3.38917 -9.48138,-4.9581 -0.66149,-0.84805 -1.47875,-2.75214 -1.81615,-4.23131 -0.85158,-3.73342 -3.47535,-3.91876 -6.7463,-0.47657 -2.79838,2.94489 -6.57035,1.72576 -10.14889,1.06607 -6.26802,0.74992 -9.28128,1.03454 -9.28128,1.03454 -10.48036,-0.65625 -12.22401,0.048 -17.16672,6.93323 l -3.49448,4.86786 c -1.02884,3.32614 0.47816,0.10562 -1.02884,3.32614 -0.5169,1.34701 -0.16688,1.5857 1.77966,1.2136 1.73822,-0.33229 2.27735,-0.0834 1.90742,0.88066 -0.82246,2.14329 0.46963,4.34388 2.55053,4.34388 1.05327,0 3.54239,-1.8013 5.53139,-4.00288 z m 50.19716,-4.74965 c -1.15374,-1.15374 -1.74564,0.65318 -0.95886,2.92717 l 0.80455,2.32536 0.36756,-2.33586 c 0.20215,-1.28473 0.10619,-2.59723 -0.21325,-2.91667 z m -70.75748,-0.58034 c 0.19138,-0.98676 -0.31876,-1.66713 -1.25,-1.66713 -0.92763,0 -1.57332,0.855 -1.57332,2.08333 0,2.43705 2.33677,2.09257 2.82332,-0.4162 z m 9.6389,-2.41713 c 4.59628,-8.74722 6.60533,-10.41561 14.19526,-11.78826 4.81236,-0.16925 2.97082,-1.21575 -1.58097,-2.55696 -2.62126,-0.78535 -4.78354,-0.79149 -7.64235,-0.0217 -4.37847,1.179 -10.79003,5.42771 -9.75407,6.46367 0.35929,0.35928 0.0674,0.65324 -0.64875,0.65324 -0.7161,0 -2.39389,1.17817 -3.72842,2.61815 l -2.42641,2.61814 2.06174,1.92081 c 1.13396,1.05645 2.06175,2.57828 2.06175,3.38186 0,0.88913 0.972,1.46104 2.48315,1.46104 1.94539,0 3.02369,-1.02869 4.97907,-4.75 z"
                 id="path4703"
                 inkscape:connector-curvature="0"
                 sodipodi:nodetypes="cscccscccscssscccssssssscsccccccscsccccccccccscscccscssccccccsscssscc" />
            </g>
            <path
               sodipodi:nodetypes="cscccccscsc"
               inkscape:connector-curvature="0"
               id="path4707"
               d="m -171.98673,340.0902 c -0.3528,-0.35279 -0.64145,-0.88085 -0.64145,-1.17345 0,-0.2926 -0.61493,-1.17388 -1.36651,-1.95834 l -1.36652,-1.42634 1.76742,-1.44523 c 0.97208,-0.79487 2.6907,-2.29386 3.81915,-3.33106 3.20114,-2.94232 7.94682,-4.48738 11.73598,-4.14379 3.06588,0.278 6.14562,1.91977 3.69964,1.91977 -1.80151,0 -7.73891,1.45477 -9.08358,2.71805 -0.68661,0.64503 -1.99286,2.50111 -2.90279,4.12462 -2.75423,4.91413 -4.23202,6.14511 -5.66134,4.71577 z"
               style="fill:#693a20;fill-opacity:1;stroke:#000000;stroke-width:1;stroke-linecap:round;stroke-miterlimit:4;stroke-dasharray:none" />
            <g
               transform="translate(-7.5595234,-4.063244)"
               id="g4711">
              <path
                 style="fill:#382810;fill-opacity:1;stroke:#000000;stroke-width:7.55905533;stroke-linecap:round;stroke-miterlimit:4;stroke-dasharray:none"
                 d="m -535.8243,1518.8625 c -1.65482,-1.8873 -3.41112,-5.6387 -3.41112,-7.286 0,-1.3075 0.44273,-1.464 4.14286,-1.464 4.09718,0 5.85714,0.8053 5.85714,2.68 0,0.5312 -0.99233,1.3117 -2.20517,1.7345 -2.02521,0.706 -2.16829,0.9652 -1.75335,3.1771 0.51445,2.7423 -0.75244,3.3002 -2.63036,1.1584 z"
                 id="path4709"
                 inkscape:connector-curvature="0"
                 transform="matrix(0.26458333,0,0,0.26458333,-26.104076,-55.681719)" />
            </g>
            <path
               transform="matrix(0.26458333,0,0,0.26458333,-26.104076,-55.681719)"
               inkscape:connector-curvature="0"
               id="path4713"
               d="m -366.59011,1502.5656 c -1.9678,-7.0069 -1.36345,-11.0782 1.31455,-8.8557 1.10561,0.9176 1.35342,7.9822 0.39996,11.4026 -0.43039,1.544 -0.66249,1.1992 -1.71451,-2.5469 z"
               style="fill:#382810;fill-opacity:1;stroke:#000000;stroke-width:7.55905533;stroke-linecap:round;stroke-miterlimit:4;stroke-dasharray:none" />
            <g
               id="g4717"
               transform="translate(-7.5595234,-5.6507441)">
              <path
                 transform="matrix(0.26458333,0,0,0.26458333,-26.104076,-55.681719)"
                 inkscape:connector-curvature="0"
                 id="path4715"
                 d="m -535.8243,1518.8625 c -1.65482,-1.8873 -3.41112,-5.6387 -3.41112,-7.286 0,-1.3075 0.44273,-1.464 4.14286,-1.464 4.09718,0 5.85714,0.8053 5.85714,2.68 0,0.5312 -0.99233,1.3117 -2.20517,1.7345 -2.02521,0.706 -2.16829,0.9652 -1.75335,3.1771 0.51445,2.7423 -0.75244,3.3002 -2.63036,1.1584 z"
                 style="fill:#382810;fill-opacity:1;stroke:#000000;stroke-width:7.55905533;stroke-linecap:round;stroke-miterlimit:4;stroke-dasharray:none" />
            </g>
            <g
               transform="translate(0.37797701,0.17008946)"
               id="g4721">
              <path
                 style="fill:#382810;fill-opacity:1;stroke:#000000;stroke-width:7.55905533;stroke-linecap:round;stroke-miterlimit:4;stroke-dasharray:none"
                 d="m -535.8243,1518.8625 c -1.65482,-1.8873 -3.41112,-5.6387 -3.41112,-7.286 0,-1.3075 0.44273,-1.464 4.14286,-1.464 4.09718,0 5.85714,0.8053 5.85714,2.68 0,0.5312 -0.99233,1.3117 -2.20517,1.7345 -2.02521,0.706 -2.16829,0.9652 -1.75335,3.1771 0.51445,2.7423 -0.75244,3.3002 -2.63036,1.1584 z"
                 id="path4719"
                 inkscape:connector-curvature="0"
                 transform="matrix(0.26458333,0,0,0.26458333,-26.104076,-55.681719)" />
            </g>
            <path
               transform="matrix(0.26458333,0,0,0.26458333,-26.104076,-55.681719)"
               inkscape:connector-curvature="0"
               id="path4723"
               d="m -520.5474,1517.1304 c -2.55192,-0.9091 -3.21346,-1.6413 -3.42353,-3.789 -0.10709,-1.0948 -0.55985,-2.5603 -1.04761,-3.3908 -0.85046,-1.4481 -0.85316,-1.4833 -0.2709,-3.53 0.99797,-3.5082 0.1384,-4.0094 -5.43562,-3.1699 -5.34929,0.8056 -6.05871,0 -3.9399,-4.4798 0.59461,-1.2569 1.14881,-2.9444 1.23156,-3.75 0.28649,-2.7891 1.20418,-4.3951 7.55593,-13.224 7.3216,-10.1769 11.62421,-15.395 14.63098,-17.744 6.68357,-5.2217 11.63086,-6.2892 27.41749,-5.9161 9.84655,0.2327 13.37962,-0.019 31.11809,-2.2158 2.0653,-0.2557 3.26504,-0.1613 6.89978,0.543 10.14963,1.9668 15.12777,1.7879 19.97331,-0.7179 0.58379,-0.3019 2.59989,-1.9628 4.48022,-3.6908 7.06993,-6.4976 11.3831,-7.7436 14.73071,-4.2555 1.5067,1.5699 1.96819,2.5975 3.54767,7.8992 1.15028,3.861 3.30303,8.4325 4.8331,10.2633 3.38957,4.0559 19.38099,12.3811 25.63462,13.3456 2.60046,0.401 6.26517,3.3758 7.82182,6.3492 0.67564,1.2905 0.25622,1.6357 -1.997,1.6436 -4.9578,0.017 -7.98769,6.0074 -6.30014,12.4556 0.32698,1.2495 0.48999,2.3745 0.36225,2.5 -0.56259,0.5532 -7.68602,-8.1606 -9.18345,-11.2336 -0.52803,-1.0837 -1.04765,-1.5779 -2.00765,-1.9094 -0.71238,-0.2461 -3.86667,-1.705 -7.00953,-3.2422 -10.76003,-5.2626 -17.89524,-10.8347 -20.42272,-15.9487 -0.9599,-1.9422 -1.52905,-2.6892 -2.17198,-2.8505 -1.24558,-0.3127 -5.2509,0.1182 -8.7155,0.9374 -4.40483,1.0416 -12.34275,2.3872 -21.04684,3.5679 -10.53928,1.4296 -15.99389,2.8656 -25.96079,6.8343 -8.66498,3.4504 -17.79567,8.3484 -21.25219,11.4004 -1.15128,1.0166 -2.11222,2.3467 -2.93085,4.0569 -2.60722,5.4467 -13.2939,17.19 -19.10627,20.9952 -2.9519,1.9326 -4.86654,2.8156 -6.03544,2.7836 -0.31443,-0.01 -1.20527,-0.2414 -1.97962,-0.5172 z"
               style="fill:#693a20;fill-opacity:1;stroke:#000000;stroke-width:3.77952766;stroke-linecap:round;stroke-miterlimit:4;stroke-dasharray:none;stroke-opacity:1" />
          </g>
          <g
             transform="matrix(-0.97485014,-0.22286142,-0.22286142,0.97485014,-564.89045,9.6308926)"
             id="g4701">
            <g
               transform="matrix(0.72949717,0,0,0.72949717,-291.29412,691.91068)"
               id="g18"
               style="stroke-width:0.36269274">
              <path
                 sodipodi:nodetypes="cscccscccscssscccssssssscsccccccscsccccccccccscscccscssccccccsscssscc"
                 inkscape:connector-curvature="0"
                 id="path12-6"
                 d="m 218.90586,-498.18 c -0.33592,2.90026 3.22153,6.17121 8.02217,7.37609 5.11906,1.2848 8.90434,8.51967 6.65573,12.72124 -1.15073,2.15015 -4.18698,2.29084 -5.86276,0.27165 -7.72834,-7.1361 -16.32791,-12.40849 -24.69628,-11.39453 -9.36802,1.34657 -13.99213,3.97417 -20.31286,11.54259 -3.89701,4.66627 -4.87515,5.32013 -7.29971,4.87966 -1.53984,-0.27974 -2.58352,-0.1588 -2.31928,0.26874 0.74772,1.20984 -3.63106,1.2299 -5.08492,0.0233 -0.71285,-0.59161 -1.29609,-2.37056 -1.29609,-3.95321 0,-3.00932 -0.77443,-3.32752 -7.1128,-2.92255 -2.19456,0.14022 -2.71605,-0.34925 -3.25775,-3.05775 -0.79567,-3.97834 0.71675,-6.56221 7.95833,-13.59634 7.67419,-7.45434 13.27431,-7.98632 33.30818,-3.16413 8.91861,2.14673 9.12712,2.1523 11.17531,0.29871 l 2.08713,-1.88882 c -0.79562,-2.69999 6.73564,0.0987 8.0356,2.59535 z m -48.694,23.85797 c -0.33992,-0.55 -0.14148,-1 0.44098,-1 0.58246,0 1.05902,-0.45 1.05902,-1 0,-0.55 -0.9,-1 -2,-1 -1.1,0 -2,0.1882 -2,0.41821 0,1.34117 1.35497,3.58179 2.16601,3.58179 0.52361,0 0.67391,-0.45 0.33399,-1 z m 10.88364,-4.00288 c 1.989,-2.20159 3.61636,-4.34645 3.61636,-4.76637 0,-2.00559 10.82749,-7.07008 16.5,-7.71776 3.3,-0.3768 7.43923,-1.05366 9.19829,-1.50415 1.75907,-0.45049 3.33407,-0.51614 3.5,-0.14588 1.09562,4.34598 10.82395,7.99129 10.82395,7.99129 0.0122,0.35516 0.95411,1.77075 2.09308,3.14575 1.35606,1.63707 1.87697,1.89595 1.50915,0.75 -0.76928,-2.39673 0.27357,-4.75 2.10496,-4.75 1.23369,0 1.284,-0.27889 0.27057,-1.5 -0.68469,-0.825 -1.68428,-1.5 -2.22132,-1.5 -1.77647,0 -8.2576,-3.38917 -9.48138,-4.9581 -0.66149,-0.84805 -1.47875,-2.75214 -1.81615,-4.23131 -0.85158,-3.73342 -3.47535,-3.91876 -6.7463,-0.47657 -2.79838,2.94489 -6.57035,1.72576 -10.14889,1.06607 -6.26802,0.74992 -9.28128,1.03454 -9.28128,1.03454 -10.48036,-0.65625 -12.22401,0.048 -17.16672,6.93323 l -3.49448,4.86786 c -1.02884,3.32614 0.47816,0.10562 -1.02884,3.32614 -0.5169,1.34701 -0.16688,1.5857 1.77966,1.2136 1.73822,-0.33229 2.27735,-0.0834 1.90742,0.88066 -0.82246,2.14329 0.46963,4.34388 2.55053,4.34388 1.05327,0 3.54239,-1.8013 5.53139,-4.00288 z m 50.19716,-4.74965 c -1.15374,-1.15374 -1.74564,0.65318 -0.95886,2.92717 l 0.80455,2.32536 0.36756,-2.33586 c 0.20215,-1.28473 0.10619,-2.59723 -0.21325,-2.91667 z m -70.75748,-0.58034 c 0.19138,-0.98676 -0.31876,-1.66713 -1.25,-1.66713 -0.92763,0 -1.57332,0.855 -1.57332,2.08333 0,2.43705 2.33677,2.09257 2.82332,-0.4162 z m 9.6389,-2.41713 c 4.59628,-8.74722 6.60533,-10.41561 14.19526,-11.78826 4.81236,-0.16925 2.97082,-1.21575 -1.58097,-2.55696 -2.62126,-0.78535 -4.78354,-0.79149 -7.64235,-0.0217 -4.37847,1.179 -10.79003,5.42771 -9.75407,6.46367 0.35929,0.35928 0.0674,0.65324 -0.64875,0.65324 -0.7161,0 -2.39389,1.17817 -3.72842,2.61815 l -2.42641,2.61814 2.06174,1.92081 c 1.13396,1.05645 2.06175,2.57828 2.06175,3.38186 0,0.88913 0.972,1.46104 2.48315,1.46104 1.94539,0 3.02369,-1.02869 4.97907,-4.75 z"
                 style="fill:#000000;stroke-width:0.36269274" />
            </g>
            <path
               style="fill:#693a20;fill-opacity:1;stroke:#000000;stroke-width:1;stroke-linecap:round;stroke-miterlimit:4;stroke-dasharray:none"
               d="m -171.98673,340.0902 c -0.3528,-0.35279 -0.64145,-0.88085 -0.64145,-1.17345 0,-0.2926 -0.61493,-1.17388 -1.36651,-1.95834 l -1.36652,-1.42634 1.76742,-1.44523 c 0.97208,-0.79487 2.6907,-2.29386 3.81915,-3.33106 3.20114,-2.94232 7.94682,-4.48738 11.73598,-4.14379 3.06588,0.278 6.14562,1.91977 3.69964,1.91977 -1.80151,0 -7.73891,1.45477 -9.08358,2.71805 -0.68661,0.64503 -1.99286,2.50111 -2.90279,4.12462 -2.75423,4.91413 -4.23202,6.14511 -5.66134,4.71577 z"
               id="path4655"
               inkscape:connector-curvature="0"
               sodipodi:nodetypes="cscccccscsc" />
            <g
               id="g4670"
               transform="translate(-7.5595234,-4.063244)">
              <path
                 transform="matrix(0.26458333,0,0,0.26458333,-26.104076,-55.681719)"
                 inkscape:connector-curvature="0"
                 id="path4665"
                 d="m -535.8243,1518.8625 c -1.65482,-1.8873 -3.41112,-5.6387 -3.41112,-7.286 0,-1.3075 0.44273,-1.464 4.14286,-1.464 4.09718,0 5.85714,0.8053 5.85714,2.68 0,0.5312 -0.99233,1.3117 -2.20517,1.7345 -2.02521,0.706 -2.16829,0.9652 -1.75335,3.1771 0.51445,2.7423 -0.75244,3.3002 -2.63036,1.1584 z"
                 style="fill:#382810;fill-opacity:1;stroke:#000000;stroke-width:7.55905533;stroke-linecap:round;stroke-miterlimit:4;stroke-dasharray:none" />
            </g>
            <path
               style="fill:#382810;fill-opacity:1;stroke:#000000;stroke-width:7.55905533;stroke-linecap:round;stroke-miterlimit:4;stroke-dasharray:none"
               d="m -366.59011,1502.5656 c -1.9678,-7.0069 -1.36345,-11.0782 1.31455,-8.8557 1.10561,0.9176 1.35342,7.9822 0.39996,11.4026 -0.43039,1.544 -0.66249,1.1992 -1.71451,-2.5469 z"
               id="path4667"
               inkscape:connector-curvature="0"
               transform="matrix(0.26458333,0,0,0.26458333,-26.104076,-55.681719)" />
            <g
               transform="translate(-7.5595234,-5.6507441)"
               id="g4674">
              <path
                 style="fill:#382810;fill-opacity:1;stroke:#000000;stroke-width:7.55905533;stroke-linecap:round;stroke-miterlimit:4;stroke-dasharray:none"
                 d="m -535.8243,1518.8625 c -1.65482,-1.8873 -3.41112,-5.6387 -3.41112,-7.286 0,-1.3075 0.44273,-1.464 4.14286,-1.464 4.09718,0 5.85714,0.8053 5.85714,2.68 0,0.5312 -0.99233,1.3117 -2.20517,1.7345 -2.02521,0.706 -2.16829,0.9652 -1.75335,3.1771 0.51445,2.7423 -0.75244,3.3002 -2.63036,1.1584 z"
                 id="path4672"
                 inkscape:connector-curvature="0"
                 transform="matrix(0.26458333,0,0,0.26458333,-26.104076,-55.681719)" />
            </g>
            <g
               id="g4686"
               transform="translate(0.37797701,0.17008946)">
              <path
                 transform="matrix(0.26458333,0,0,0.26458333,-26.104076,-55.681719)"
                 inkscape:connector-curvature="0"
                 id="path4684"
                 d="m -535.8243,1518.8625 c -1.65482,-1.8873 -3.41112,-5.6387 -3.41112,-7.286 0,-1.3075 0.44273,-1.464 4.14286,-1.464 4.09718,0 5.85714,0.8053 5.85714,2.68 0,0.5312 -0.99233,1.3117 -2.20517,1.7345 -2.02521,0.706 -2.16829,0.9652 -1.75335,3.1771 0.51445,2.7423 -0.75244,3.3002 -2.63036,1.1584 z"
                 style="fill:#382810;fill-opacity:1;stroke:#000000;stroke-width:7.55905533;stroke-linecap:round;stroke-miterlimit:4;stroke-dasharray:none" />
            </g>
            <path
               style="fill:#693a20;fill-opacity:1;stroke:#000000;stroke-width:3.77952766;stroke-linecap:round;stroke-miterlimit:4;stroke-dasharray:none;stroke-opacity:1"
               d="m -520.5474,1517.1304 c -2.55192,-0.9091 -3.21346,-1.6413 -3.42353,-3.789 -0.10709,-1.0948 -0.55985,-2.5603 -1.04761,-3.3908 -0.85046,-1.4481 -0.85316,-1.4833 -0.2709,-3.53 0.99797,-3.5082 0.1384,-4.0094 -5.43562,-3.1699 -5.34929,0.8056 -6.05871,0 -3.9399,-4.4798 0.59461,-1.2569 1.14881,-2.9444 1.23156,-3.75 0.28649,-2.7891 1.20418,-4.3951 7.55593,-13.224 7.3216,-10.1769 11.62421,-15.395 14.63098,-17.744 6.68357,-5.2217 11.63086,-6.2892 27.41749,-5.9161 9.84655,0.2327 13.37962,-0.019 31.11809,-2.2158 2.0653,-0.2557 3.26504,-0.1613 6.89978,0.543 10.14963,1.9668 15.12777,1.7879 19.97331,-0.7179 0.58379,-0.3019 2.59989,-1.9628 4.48022,-3.6908 7.06993,-6.4976 11.3831,-7.7436 14.73071,-4.2555 1.5067,1.5699 1.96819,2.5975 3.54767,7.8992 1.15028,3.861 3.30303,8.4325 4.8331,10.2633 3.38957,4.0559 19.38099,12.3811 25.63462,13.3456 2.60046,0.401 6.26517,3.3758 7.82182,6.3492 0.67564,1.2905 0.25622,1.6357 -1.997,1.6436 -4.9578,0.017 -7.98769,6.0074 -6.30014,12.4556 0.32698,1.2495 0.48999,2.3745 0.36225,2.5 -0.56259,0.5532 -7.68602,-8.1606 -9.18345,-11.2336 -0.52803,-1.0837 -1.04765,-1.5779 -2.00765,-1.9094 -0.71238,-0.2461 -3.86667,-1.705 -7.00953,-3.2422 -10.76003,-5.2626 -17.89524,-10.8347 -20.42272,-15.9487 -0.9599,-1.9422 -1.52905,-2.6892 -2.17198,-2.8505 -1.24558,-0.3127 -5.2509,0.1182 -8.7155,0.9374 -4.40483,1.0416 -12.34275,2.3872 -21.04684,3.5679 -10.53928,1.4296 -15.99389,2.8656 -25.96079,6.8343 -8.66498,3.4504 -17.79567,8.3484 -21.25219,11.4004 -1.15128,1.0166 -2.11222,2.3467 -2.93085,4.0569 -2.60722,5.4467 -13.2939,17.19 -19.10627,20.9952 -2.9519,1.9326 -4.86654,2.8156 -6.03544,2.7836 -0.31443,-0.01 -1.20527,-0.2414 -1.97962,-0.5172 z"
               id="path4688"
               inkscape:connector-curvature="0"
               transform="matrix(0.26458333,0,0,0.26458333,-26.104076,-55.681719)" />
          </g>
        </g>
        <rect
           style="fill:#ffffff;fill-opacity:1;stroke:#ffffff;stroke-width:4.67498064;stroke-linecap:round;stroke-miterlimit:4;stroke-dasharray:none;stroke-opacity:1"
           id="rect704"
           width="10.315062"
           height="5.8362083"
           x="-18.36521"
           y="82.617325"
           transform="matrix(-0.99997669,-0.00682794,-0.00761847,0.99997098,0,0)" />
        <rect
           y="81.264816"
           x="-21.070227"
           height="8.9764967"
           width="33.982014"
           id="rect706"
           style="fill:#000000;fill-opacity:1;stroke:none;stroke-width:4.67498016;stroke-linecap:round;stroke-miterlimit:4;stroke-dasharray:none;stroke-opacity:1"
           transform="scale(-1,1)" />
      </g>
    </g>
  </g>
</svg>
